{
  "lang":"en",
  "name":"pipeline",
  "version":"0.0.0",
  "spacy_version":">=3.0.6,<3.1.0",
  "description":"",
  "author":"",
  "email":"",
  "url":"",
  "license":"",
  "spacy_git_version":"df3444421",
  "vectors":{
    "width":0,
    "vectors":0,
    "keys":0,
    "name":null
  },
  "labels":{
    "tok2vec":[

    ],
    "ner":[
      "amount",
      "article_number",
      "product",
      "quantity",
      "target_price"
    ]
  },
  "pipeline":[
    "tok2vec",
    "ner"
  ],
  "components":[
    "tok2vec",
    "ner"
  ],
  "disabled":[

  ],
  "performance":{
    "ents_per_type":{
      "quantity":{
        "p":0.9948870899,
        "r":0.9989304813,
        "f":0.9969046857
      },
      "article_number":{
        "p":0.9987129987,
        "r":0.9995706312,
        "f":0.9991416309
      },
      "target_price":{
        "p":0.9974070873,
        "r":0.9993505088,
        "f":0.9983778523
      },
      "amount":{
        "p":1.0,
        "r":1.0,
        "f":1.0
      },
      "product":{
        "p":0.9198676074,
        "r":0.8865849563,
        "f":0.9029196768
      }
    },
    "ents_f":0.9547962028,
    "ents_p":0.9623182711,
    "ents_r":0.9473908166,
    "tok2vec_loss":676.5741257349,
    "ner_loss":3208.9085368628
  }
}