[
  "\t",
  "\n",
  " ",
  "  ",
  "   ",
  "    ",
  "     ",
  "      ",
  "       ",
  "        ",
  "         ",
  "          ",
  "           ",
  "            ",
  "             ",
  "              ",
  "               ",
  "                ",
  "                 ",
  "                  ",
  "                   ",
  "                    ",
  "                     ",
  "                      ",
  "                       ",
  "                        ",
  "                         ",
  "                          ",
  "                           ",
  "                            ",
  "                             ",
  "                              ",
  "                               ",
  "                                ",
  "                                 ",
  "                                  ",
  "                                   ",
  "                                    ",
  "                                     ",
  "                                      ",
  "                                       ",
  "                                        ",
  "                                         ",
  "                                          ",
  "                                           ",
  "                                            ",
  "                                             ",
  "                                              ",
  "                                               ",
  "                                                ",
  "                                                 ",
  "                                                  ",
  "                                                   ",
  "                                                    ",
  "                                                     ",
  "                                                      ",
  "                                                       ",
  "                                                        ",
  "                                                         ",
  "                                                               ",
  "                                                                ",
  "                                                                 ",
  "                                                                  ",
  "                                                                   ",
  "                                                                    ",
  "                                                                     ",
  "                                                                      ",
  "                                                                       ",
  "                                                                        ",
  "                                                                         ",
  "                                                                          ",
  "                                                                           ",
  "                                                                            ",
  "                                                                             ",
  "                                                                              ",
  "                                                                               ",
  "                                                                                ",
  "                                                                                 ",
  "                                                                                  ",
  "                                                                                   ",
  "!",
  "\"",
  "\"/1",
  "#",
  "$",
  "%",
  "&",
  "'",
  "''",
  "'-(",
  "'-)",
  "'07",
  "'14",
  "'Cause",
  "'Cos",
  "'Coz",
  "'Cuz",
  "'S",
  "'X",
  "'Xxx",
  "'Xxxxx",
  "'am",
  "'bout",
  "'cause",
  "'cos",
  "'coz",
  "'cuz",
  "'d",
  "'em",
  "'ll",
  "'m",
  "'nuff",
  "'re",
  "'s",
  "'ve",
  "'x",
  "'xx",
  "'xxx",
  "'xxxx",
  "'y",
  "(",
  "(((",
  "(*>",
  "(*_*)",
  "(-8",
  "(-:",
  "(-;",
  "(-_-)",
  "(-d",
  "(._.)",
  "(:",
  "(;",
  "(=",
  "(>_<)",
  "(^_^)",
  "(o:",
  "(x:",
  "(x_x)",
  "(\u00ac_\u00ac)",
  "(\u0ca0_\u0ca0)",
  "(\u256f\u00b0\u25a1\u00b0\uff09\u256f\ufe35\u253b\u2501\u253b",
  ")",
  ")))",
  ")-:",
  ")/\u00af",
  "):",
  "*",
  "+",
  "+++",
  ",",
  ",5x",
  "-",
  "-((",
  "-))",
  "-/",
  "-/\u2019-B",
  "-/\u2019-BZJ",
  "-/\u2019-X",
  "-/\u2019-XXX",
  "-/\u2019-b",
  "-/\u2019-bzj",
  "-0",
  "-0.01",
  "-0.02",
  "-3",
  "-8",
  "-D",
  "-G7",
  "-O",
  "-P",
  "-W",
  "-X",
  "-Xd",
  "-_-",
  "-__-",
  "-_\u2014.",
  "-d",
  "-d.dd",
  "-g7",
  "-o",
  "-p",
  "-w",
  "-x",
  "-|",
  "-\u2014-",
  "-\u2014._s\"T",
  "-\u2014._s\"t",
  "-\u2014._x\"X",
  "-\u2014G",
  "-\u2014X",
  "-\u2014_sT",
  "-\u2014_st",
  "-\u2014_xX",
  "-\u2014g",
  "-\u2014\u2014_>\u201dT",
  "-\u2014\u2014_>\u201dX",
  "-\u2014\u2014_>\u201dt",
  ".",
  "..",
  "...",
  ".00",
  ".01",
  ".02",
  ".03",
  ".04",
  ".05",
  ".10",
  ".11",
  ".12",
  ".14",
  ".16",
  ".18",
  ".20",
  ".25",
  ".26",
  ".28",
  ".30",
  ".31",
  ".32",
  ".33",
  ".34",
  ".35",
  ".37",
  ".38",
  ".40",
  ".42",
  ".43",
  ".44",
  ".45",
  ".46",
  ".47",
  ".48",
  ".50",
  ".51",
  ".52",
  ".54",
  ".55",
  ".56",
  ".57",
  ".58",
  ".60",
  ".61",
  ".62",
  ".64",
  ".65",
  ".70",
  ".72",
  ".73",
  ".75",
  ".76",
  ".78",
  ".80",
  ".81",
  ".84",
  ".85",
  ".86",
  ".88",
  ".90",
  ".92",
  ".93",
  ".94",
  ".95",
  ".96",
  ".99",
  ".C.",
  ".D.",
  ".E.",
  ".G.",
  ".H.",
  ".J.",
  ".M.",
  ".Y.",
  "._.",
  ".ch",
  ".cm",
  ".e.",
  ".g.",
  ".m.",
  ".n",
  ".s.",
  ".x",
  "/",
  "/10",
  "/3",
  "/56",
  "/8",
  "/@@eo",
  "/@@xx",
  "/d",
  "/dd",
  "/or",
  "/x\\",
  "/\u0131\\",
  "0",
  "0,3",
  "0,5",
  "0.0",
  "0.01",
  "0.02",
  "0.1",
  "0.5",
  "0.56",
  "0.8",
  "0.o",
  "0/6",
  "000",
  "001",
  "002",
  "003",
  "004",
  "006",
  "007",
  "008",
  "009",
  "010",
  "011",
  "011.000.000",
  "012",
  "013",
  "013.000.000",
  "014",
  "015",
  "016",
  "017",
  "017.000.000",
  "019",
  "020",
  "021",
  "026",
  "03",
  "03.08.2017",
  "030",
  "040",
  "050",
  "05X",
  "060",
  "07.07.2016",
  "070",
  "07:52:52",
  "07D",
  "08",
  "08.07.2021",
  "080",
  "088",
  "08:58:06",
  "090",
  "0HD",
  "0NE",
  "0NR",
  "0_0",
  "0_o",
  "0x8",
  "1",
  "1'000.00",
  "1'007.00",
  "1'032.00",
  "1'032.84",
  "1'040.00",
  "1'050.00",
  "1'052.00",
  "1'056.00",
  "1'064.00",
  "1'065.00",
  "1'069.00",
  "1'092.00",
  "1'098.00",
  "1'120.00",
  "1'124.00",
  "1'174.00",
  "1'182.00",
  "1'206.00",
  "1'222.50",
  "1'224.00",
  "1'232.88",
  "1'237.50",
  "1'242.00",
  "1'250.00",
  "1'264.00",
  "1'267.00",
  "1'272.00",
  "1'299.00",
  "1'351.00",
  "1'358.00",
  "1'362.00",
  "1'395.00",
  "1'404.00",
  "1'410.00",
  "1'425.00",
  "1'431.00",
  "1'440.00",
  "1'454.00",
  "1'490.00",
  "1'500.00",
  "1'512.00",
  "1'543.00",
  "1'549.26",
  "1'560.00",
  "1'560.81",
  "1'586.00",
  "1'600.00",
  "1'607.57",
  "1'609.70",
  "1'615.00",
  "1'620.00",
  "1'640.00",
  "1'647.00",
  "1'648.00",
  "1'652.40",
  "1'665.00",
  "1'686.00",
  "1'695.00",
  "1'710.00",
  "1'728.00",
  "1'736.20",
  "1'747.50",
  "1'785.00",
  "1'800.00",
  "1'816.00",
  "1'833.50",
  "1'850.00",
  "1'866.00",
  "1'890.00",
  "1'908.00",
  "1'911.00",
  "1'920.00",
  "1'930.00",
  "1'943.90",
  "1'967.00",
  "1'968.00",
  "1'969.92",
  "1'971.00",
  "1'980.00",
  "1,2",
  "1,5",
  "1,6",
  "1.0",
  "1.1",
  "1.12",
  "1.3",
  "1.6",
  "1.6m2",
  "1.Obergeschoss",
  "1.obergeschoss",
  "1/2",
  "1/4",
  "1/4\"/1",
  "10",
  "10'350.00",
  "10.0",
  "10.50",
  "10.80",
  "100",
  "100.00",
  "1000",
  "10000",
  "100x60",
  "101.000.000",
  "101.100.000",
  "101.104.000",
  "101.501.000",
  "1010",
  "10100",
  "102.000.000",
  "102.100.000",
  "102.501.000",
  "1020",
  "10200",
  "10220",
  "10240",
  "10265",
  "10270",
  "10275",
  "10285",
  "10290",
  "103.100.000",
  "1030",
  "10300",
  "1040",
  "10400",
  "10410",
  "104202",
  "10430",
  "10440",
  "105",
  "105.00",
  "1050",
  "10500",
  "106.00",
  "106.104.000",
  "106.50",
  "1060",
  "10600",
  "1070",
  "10700",
  "108.00",
  "108.501.000",
  "1080",
  "10800",
  "109.501.000",
  "10900",
  "10:25:19",
  "10:50:41",
  "10a.m",
  "10a.m.",
  "10p.m",
  "10p.m.",
  "11",
  "11'340.00",
  "11'814.80",
  "11,6",
  "11.0",
  "11.1",
  "11.11",
  "11.20",
  "11.50",
  "11/4",
  "110",
  "110'864.00",
  "110.00",
  "110.000.000",
  "110.501.000",
  "1100",
  "11000",
  "11002",
  "11010",
  "11020",
  "111",
  "111.00",
  "111.000.000",
  "111.100.000",
  "111.12",
  "111.501.000",
  "1110.00",
  "11100",
  "11113",
  "112",
  "112.00",
  "112.000.000",
  "112.501.000",
  "1120.00",
  "11200",
  "1125.00",
  "1128.00",
  "113",
  "113.00",
  "113.000.000",
  "113.501.000",
  "1130",
  "11300",
  "1131.00",
  "11310",
  "11320",
  "11330",
  "1134.00",
  "114",
  "114.00",
  "114.90",
  "11400",
  "115",
  "115.00",
  "115.000.000",
  "115.100.000",
  "115.50",
  "115.501.000",
  "1150",
  "11500",
  "11510",
  "1152.00",
  "115202",
  "115390",
  "11540",
  "11550",
  "1158.00",
  "116",
  "116,8",
  "116.00",
  "116.100.000",
  "116.501.000",
  "11600",
  "1168.00",
  "117.00",
  "117.100.000",
  "11700",
  "11710",
  "118",
  "118,3",
  "118,5",
  "118.00",
  "1180",
  "11800",
  "11810",
  "11850",
  "119",
  "119.00",
  "119.000.000",
  "11900",
  "1194.00",
  "1197.00",
  "11:03:57",
  "11:04:23",
  "11:27:05",
  "11:38:22",
  "11:50:40",
  "11:51:05",
  "11:51:08",
  "11:51:12",
  "11:51:50",
  "11a.m",
  "11a.m.",
  "11p.m",
  "11p.m.",
  "12",
  "12'800.00",
  "12,8",
  "12.00",
  "12.50",
  "120",
  "120.00",
  "120.000.000",
  "120.501.000",
  "1200",
  "12000",
  "12001",
  "12002",
  "120x60",
  "120x80x6.5",
  "121",
  "121.000.000",
  "121.30",
  "121.501.000",
  "121.508.000",
  "1210",
  "12100",
  "122",
  "122.00",
  "122.100.000",
  "122.555.000",
  "1220",
  "12200",
  "123'400.00",
  "123.00",
  "123.000.000",
  "123.100.000",
  "123.76",
  "1230",
  "12300",
  "124.00",
  "124.000.000",
  "1240",
  "12400",
  "125",
  "125.00",
  "125.000.000",
  "125.100.000",
  "125.508.000",
  "1250",
  "12500",
  "12510",
  "12530",
  "12540",
  "126.00",
  "1260",
  "12600",
  "127.501.000",
  "1270",
  "12700",
  "128",
  "128.00",
  "128.61",
  "1280",
  "12800",
  "129.00",
  "1290",
  "12900",
  "1292.00",
  "1293.00",
  "1295.00",
  "12950",
  "12a.m",
  "12a.m.",
  "12p.m",
  "12p.m.",
  "13",
  "13'080.00",
  "13'200.00",
  "13'414.00",
  "13'536.00",
  "13'860.00",
  "13,2",
  "13,5",
  "13,6",
  "13.50",
  "13.6",
  "13.9",
  "130",
  "130.00",
  "130.100.000",
  "130.50",
  "1300",
  "13000",
  "131",
  "131.00",
  "131.000.000",
  "131.100.000",
  "1310",
  "13100",
  "1311",
  "1313",
  "1317",
  "132.00",
  "132.000.000",
  "1320",
  "13200",
  "133",
  "133.00",
  "133.339.000",
  "1330",
  "13300",
  "13310",
  "13320",
  "13330",
  "13340",
  "133400",
  "134.100.000",
  "1340",
  "13400",
  "135.00",
  "135.100.000",
  "135.501.000",
  "1350",
  "13500",
  "136'600.00",
  "136.00",
  "136.000.000",
  "13600",
  "137.00",
  "1370",
  "13700",
  "13710",
  "13720",
  "13730",
  "13740",
  "1375",
  "13750",
  "138.00",
  "138.000.000",
  "13800",
  "13900",
  "14",
  "14'184.00",
  "14'333.40",
  "14'472.00",
  "14'750.54",
  "14'900.00",
  "14'928.00",
  "14,2",
  "14.00",
  "14.2",
  "14.50",
  "140",
  "140.000.000",
  "1400",
  "141",
  "141.00",
  "1410",
  "14100",
  "142",
  "142.00",
  "142.100.000",
  "1420",
  "14200",
  "1421",
  "1422",
  "143.99",
  "1430",
  "14300",
  "1435",
  "144.00",
  "144.000.000",
  "1440",
  "14400",
  "1441",
  "1445",
  "145",
  "145.00",
  "1450",
  "14500",
  "146.00",
  "1460",
  "1461",
  "147",
  "1470",
  "14700",
  "148.50",
  "148.72",
  "1480.00",
  "14800",
  "14820",
  "14900",
  "14:39:32",
  "15",
  "15'884.57",
  "15.00",
  "15.20",
  "15.50",
  "15.96",
  "150",
  "150.00",
  "150.000.000",
  "1500",
  "15000",
  "151",
  "151.501.000",
  "1510",
  "15100",
  "1512.00",
  "152",
  "152.00",
  "152.100.000",
  "152.76",
  "1520",
  "15200",
  "1522",
  "1529",
  "153",
  "153.00",
  "153.000.000",
  "153.45",
  "1530",
  "15300",
  "154.00",
  "154.50",
  "1540",
  "15400",
  "1541",
  "1543.00",
  "1549",
  "155.000.000",
  "1550",
  "15500",
  "156",
  "1560",
  "15600",
  "15602",
  "15610",
  "15620",
  "15630",
  "15650",
  "157.00",
  "157.50",
  "15700",
  "158.00",
  "15800",
  "15860",
  "159.00",
  "159.75",
  "1590",
  "15940",
  "15950",
  "16",
  "16'300.00",
  "16'500.00",
  "16,4",
  "16.00",
  "16.20",
  "16.3",
  "16.5",
  "16.50",
  "160",
  "1600",
  "16000",
  "160x",
  "161",
  "161'400.00",
  "161.501.000",
  "1610",
  "16100",
  "162.00",
  "162.501.000",
  "162.502.000",
  "1620",
  "16200",
  "163",
  "163.000.000",
  "1630",
  "16300",
  "164.50",
  "1640",
  "16400",
  "165.00",
  "165.000.000",
  "165.100.000",
  "1650",
  "16500",
  "16600",
  "167",
  "167.00",
  "167.40",
  "167.501.000",
  "167.502.000",
  "1670",
  "16700",
  "168.00",
  "168.501.000",
  "16800",
  "16900",
  "16:39:55",
  "16:39:59",
  "16:40:11",
  "16:45:11",
  "17",
  "17.00",
  "17.08.2015",
  "17.10",
  "170",
  "170'803.37",
  "170.00",
  "1700",
  "171",
  "171.00",
  "171.000.000",
  "1710",
  "17100",
  "1711",
  "1713",
  "1718",
  "172",
  "172.000.000",
  "172.100.000",
  "172.50",
  "172.501.000",
  "17200",
  "1725.00",
  "173",
  "173.502.000",
  "1733",
  "174.00",
  "17410",
  "17420",
  "17430",
  "175",
  "175.00",
  "175.000.000",
  "175.100.000",
  "17500",
  "176.00",
  "17600",
  "17620",
  "17640",
  "17650",
  "177.50",
  "17700",
  "178.00",
  "17800",
  "179.00",
  "17900",
  "17910",
  "17920",
  "17930",
  "17950",
  "1799.93",
  "18",
  "18'660.00",
  "18.00",
  "18.01.2017",
  "18.3",
  "18.52",
  "18.6",
  "180",
  "180.00",
  "180.000.000",
  "1800",
  "18000",
  "18010",
  "18020",
  "18040",
  "1810",
  "18100",
  "182.00",
  "182.100.000",
  "1820",
  "18200",
  "18300",
  "184.00",
  "1840",
  "18400",
  "185'129.80",
  "185.00",
  "1850",
  "18500",
  "18510",
  "18520",
  "18530",
  "18540",
  "18550",
  "186.00",
  "18600",
  "18700",
  "187600",
  "18770",
  "18780",
  "18785",
  "18790",
  "18800",
  "189.00",
  "189.000.000",
  "18900",
  "19",
  "19'770.00",
  "19.00",
  "19.01.2017",
  "19.10.2017",
  "19.5",
  "19.50",
  "190.00",
  "190.000.000",
  "1900",
  "19000",
  "19050",
  "191'565.45",
  "191.501.000",
  "19100",
  "192",
  "192.00",
  "1920",
  "193.00",
  "193.000.000",
  "19300",
  "194",
  "194.00",
  "1940",
  "19400",
  "195",
  "195.00",
  "1950",
  "19500",
  "196.00",
  "196.50",
  "19600",
  "197.00",
  "19700",
  "198.00",
  "199.00",
  "199.50",
  "19900",
  "19950",
  "1Y2",
  "1Ya",
  "1a.m",
  "1a.m.",
  "1p.m",
  "1p.m.",
  "1x",
  "1y2",
  "1ya",
  "2",
  "2'000.00",
  "2'016.00",
  "2'048.58",
  "2'068'499.80",
  "2'080.00",
  "2'097.25",
  "2'135'042.18",
  "2'204.00",
  "2'212.51",
  "2'238.00",
  "2'240.00",
  "2'268.00",
  "2'305'845.55",
  "2'340.00",
  "2'344.32",
  "2'364.00",
  "2'475.00",
  "2'488.00",
  "2'528.00",
  "2'531.47",
  "2'600.00",
  "2'603.00",
  "2'646.00",
  "2'712.00",
  "2'718.73",
  "2'724.00",
  "2'744.00",
  "2'790.00",
  "2'844.00",
  "2'847.90",
  "2'880.00",
  "2'928.00",
  "2'953.70",
  "2'960.00",
  "2'980.00",
  "2,2",
  "2,5",
  "2,6",
  "2,8",
  "2.0",
  "2.1",
  "2.31",
  "2.4",
  "2.5",
  "2.8",
  "2.80",
  "20",
  "20.00",
  "20.01.2017",
  "20.50",
  "20.8",
  "200",
  "2000",
  "20000",
  "201.000.000",
  "201.501.000",
  "2010",
  "20100",
  "202",
  "203.00",
  "2030005623",
  "2030007215",
  "20350",
  "204.00",
  "204.000.000",
  "20400",
  "205.000.000",
  "2050",
  "20500",
  "206'316.00",
  "206.00",
  "20600",
  "207.555.000",
  "20700",
  "208.000.000",
  "208.50",
  "20800",
  "209.00",
  "20900",
  "20NR",
  "20nr",
  "20x10x8",
  "21.00",
  "21.50",
  "210",
  "210.00",
  "2100",
  "2100.00",
  "21000",
  "211",
  "211.000.000",
  "211.100.000",
  "211.336.000",
  "2110",
  "21100",
  "2111",
  "21110",
  "2112",
  "2115",
  "212.000.000",
  "212.336.000",
  "21200",
  "2121",
  "213.000.000",
  "213.50",
  "2130",
  "21300",
  "214.000.000",
  "2140",
  "21400",
  "2141",
  "2142",
  "2147",
  "215",
  "215.00",
  "215.336.000",
  "2150",
  "21500",
  "216.00",
  "21600",
  "217",
  "217.00",
  "21720",
  "21740",
  "218.00",
  "218.501.000",
  "21800",
  "219.00",
  "219.100.000",
  "21900",
  "2196.00",
  "21N",
  "21S",
  "21n",
  "22",
  "22'306.00",
  "22,6",
  "22.00",
  "22.50",
  "220",
  "220.00",
  "2200",
  "22000",
  "221.00",
  "221.508.000",
  "2210",
  "22100",
  "2211",
  "222.50",
  "222.501.000",
  "2220",
  "22200",
  "223",
  "223.46",
  "223.501.000",
  "2230",
  "22300",
  "224.00",
  "224.501.000",
  "2240",
  "22400",
  "2242.00",
  "225",
  "225.00",
  "225.501.000",
  "2250",
  "22500",
  "226.100.000",
  "22600",
  "22650",
  "22700",
  "228.00",
  "22800",
  "228600",
  "229.14",
  "229.50",
  "22900",
  "23",
  "23'424.72",
  "23.00",
  "23.05.2019",
  "23.10.2015",
  "23.50",
  "230",
  "230.00",
  "230.000.000",
  "230/6",
  "2300",
  "23000",
  "231.00",
  "2310",
  "23100",
  "232.000.000",
  "232.50",
  "232.501.000",
  "2320",
  "23200",
  "233.555.000",
  "2330",
  "23310",
  "23320",
  "23330",
  "23340",
  "234.555.000",
  "234.557.000",
  "2340",
  "23400",
  "235.00",
  "235.100.000",
  "235.501.000",
  "235.523.000",
  "2350",
  "23500",
  "235400",
  "23550",
  "236.00",
  "2360",
  "23600",
  "23700",
  "238.00",
  "238.599.118",
  "23800",
  "23810",
  "23815",
  "23820",
  "23830",
  "23850",
  "238600",
  "239.100.000",
  "23900",
  "23910",
  "23920",
  "23930",
  "24",
  "24'752.00",
  "24,6",
  "24.00",
  "24.01.2017",
  "24.50",
  "24.7",
  "240",
  "240.00",
  "2400",
  "24000",
  "241",
  "241.100.000",
  "24100",
  "242.00",
  "242.60",
  "24200",
  "243.00",
  "24300",
  "244.00",
  "244.50",
  "24400",
  "245.00",
  "2450",
  "2460",
  "24600",
  "247.50",
  "2470",
  "24700",
  "248.00",
  "2480",
  "24900",
  "25",
  "25.00",
  "25.50",
  "25.9",
  "25.cm",
  "250",
  "250.00",
  "2500",
  "251.00",
  "2510",
  "25100",
  "252.00",
  "2520",
  "25200",
  "2530",
  "25300",
  "2540",
  "25400",
  "25410",
  "25460",
  "25480",
  "2550",
  "25500",
  "256.00",
  "25600",
  "258.00",
  "25800",
  "2584.00",
  "25900",
  "26'200.00",
  "26'854.90",
  "26,5",
  "26.00",
  "260",
  "260.00",
  "2600",
  "26000",
  "261.555.000",
  "26100",
  "262.00",
  "262.100.000",
  "262.50",
  "26200",
  "263.00",
  "26300",
  "264.00",
  "26400",
  "26415",
  "26425",
  "26435",
  "26460",
  "26470",
  "265",
  "2650",
  "26500",
  "266.00",
  "26600",
  "26700",
  "268.80",
  "26800",
  "269.100.000",
  "269.50",
  "26900",
  "27'656.35",
  "27.00",
  "27.50",
  "27.78",
  "270",
  "270.00",
  "270.100.000",
  "270.502.000",
  "2700",
  "2700.00",
  "27000",
  "271.00",
  "271.000.000",
  "27100",
  "272.000.000",
  "2720",
  "27200",
  "273.00",
  "2730.00",
  "27300",
  "274.50",
  "27400",
  "275",
  "275.50",
  "2750",
  "27500",
  "276.00",
  "27600",
  "2765.00",
  "27700",
  "27710",
  "27800",
  "278600",
  "279.00",
  "27900",
  "2792.00",
  "28",
  "28,6",
  "28.00",
  "28.50",
  "280",
  "280.00",
  "2800",
  "281.00",
  "28100",
  "282.00",
  "28200",
  "28300",
  "284.00",
  "28400",
  "285",
  "2850",
  "28500",
  "28600",
  "287.50",
  "2870",
  "28700",
  "288.00",
  "28800",
  "288600",
  "289.00",
  "28900",
  "29",
  "29'744.00",
  "29'868.85",
  "29.00",
  "29.50",
  "290",
  "290.00",
  "2900",
  "29000",
  "291.00",
  "291.000.000",
  "2910",
  "29100",
  "292.00",
  "292.000.000",
  "292.01",
  "2920",
  "29200",
  "2930",
  "29300",
  "294.00",
  "294.50",
  "2940",
  "29400",
  "2950",
  "29500",
  "29510",
  "29520",
  "2953.70",
  "29530",
  "29540",
  "29550",
  "296.00",
  "296.000.000",
  "29600",
  "297.00",
  "297.50",
  "29700",
  "29800",
  "299",
  "29900",
  "29910",
  "29920",
  "29930",
  "29940",
  "2Gummih\u00fclsen",
  "2N",
  "2U",
  "2a.m",
  "2a.m.",
  "2gummih\u00fclsen",
  "2n",
  "2p.m",
  "2p.m.",
  "2teilig",
  "2u",
  "3",
  "3'000.00",
  "3'024.00",
  "3'360.00",
  "3'535.28",
  "3'583.35",
  "3'612.00",
  "3'632.00",
  "3'650.18",
  "3'660.00",
  "3'685.20",
  "3'822.00",
  "3'876.00",
  "3'888.00",
  "3'900.00",
  "3'942.20",
  "3,2",
  "3,4",
  "3,5",
  "3,6",
  "3,8",
  "3.00",
  "3.25",
  "3.4",
  "3.5",
  "3.50",
  "3.6",
  "3.80",
  "3.9",
  "3.U.Scheiben",
  "3.u.scheiben",
  "3/4",
  "3/8",
  "30",
  "30'647.34",
  "30,3",
  "30.00",
  "30.50",
  "300",
  "300.00",
  "3000",
  "30000",
  "301.00",
  "301.000.000",
  "301.501.000",
  "301.502.000",
  "301.508.000",
  "3010",
  "30100",
  "302",
  "302.00",
  "302.508.000",
  "3020",
  "30200",
  "303",
  "30300",
  "305",
  "305.00",
  "305.000.000",
  "30510",
  "30520",
  "306.00",
  "306.000.000",
  "30600",
  "307.00",
  "30700",
  "308.00",
  "30800",
  "309.501.000",
  "3090",
  "30900",
  "30x158x100",
  "31'643.38",
  "31.00",
  "31.10.2017",
  "31.50",
  "31.92",
  "310",
  "310.00",
  "310.501.000",
  "3100",
  "3100.00",
  "31000",
  "311",
  "311.00",
  "311.000.000",
  "3110.00",
  "3120.00",
  "31200",
  "31210",
  "31220",
  "31230",
  "31270",
  "313",
  "313.50",
  "313.502.000",
  "31300",
  "3131",
  "31320",
  "31330",
  "31340",
  "31350",
  "314.501.000",
  "314.64",
  "31400",
  "315.00",
  "315.501.000",
  "31500",
  "316.00",
  "31600",
  "3161",
  "31610",
  "3163",
  "317",
  "317.000.000",
  "31700",
  "3171",
  "3178.00",
  "318.00",
  "318.50",
  "31800",
  "31900",
  "32",
  "32'997.30",
  "32.00",
  "320",
  "320.00",
  "320.100.000",
  "3200",
  "32000",
  "321",
  "321.502.000",
  "32100",
  "32200",
  "323",
  "323.00",
  "324.00",
  "3240.00",
  "32400",
  "3241",
  "325",
  "325.100.000",
  "32500",
  "326.00",
  "326.100.000",
  "32600",
  "32700",
  "328",
  "328.00",
  "32800",
  "329.00",
  "32900",
  "33",
  "33'984.16",
  "33,4",
  "33.00",
  "33.50",
  "330",
  "330.00",
  "330.100.000",
  "3300",
  "33000",
  "331.000.000",
  "33100",
  "3311",
  "3313",
  "33200",
  "333",
  "33300",
  "334.00",
  "33400",
  "3342",
  "335.00",
  "33500",
  "3351",
  "3353",
  "336.00",
  "33600",
  "3361",
  "3364",
  "3370",
  "33700",
  "3371",
  "33710",
  "33720",
  "33730",
  "33740",
  "33750",
  "33800",
  "3381",
  "33900",
  "34",
  "34'174.85",
  "34'200.00",
  "34.00",
  "34.50",
  "340",
  "3400",
  "34000",
  "341.501.000",
  "341.502.000",
  "3410",
  "34100",
  "3411",
  "342",
  "342.00",
  "342.502.000",
  "3420",
  "34200",
  "3421",
  "3430",
  "3431",
  "344.00",
  "34400",
  "3441",
  "345.00",
  "3450",
  "34500",
  "3451",
  "3460",
  "34600",
  "3461",
  "34700",
  "34800",
  "349.00",
  "34900",
  "35",
  "35.00",
  "35.50",
  "350",
  "350.000.000",
  "350.100.000",
  "3500",
  "35000",
  "351",
  "35100",
  "352",
  "353",
  "353.00",
  "35310",
  "35320",
  "35330",
  "35340",
  "35400",
  "35500",
  "356.00",
  "35600",
  "357.00",
  "357.000.000",
  "3570",
  "35700",
  "35800",
  "36",
  "36'702.90",
  "36.00",
  "36.50",
  "36.80",
  "360",
  "360.00",
  "360.50",
  "3600",
  "361",
  "3612",
  "362",
  "362.502.000",
  "36300",
  "364",
  "36400",
  "366.00",
  "36600",
  "36700",
  "368.00",
  "36800",
  "36900",
  "37.00",
  "370",
  "370.50",
  "3700",
  "371",
  "371.000.000",
  "37100",
  "372.00",
  "3720.00",
  "37200",
  "37300",
  "374.000.000",
  "37400",
  "375",
  "375.00",
  "3750",
  "3750.00",
  "37500",
  "376.00",
  "3760",
  "37600",
  "37630",
  "377.00",
  "378.00",
  "3780.00",
  "37800",
  "37900",
  "38",
  "38.00",
  "38.50",
  "380.00",
  "3800",
  "38000",
  "381",
  "3810",
  "38100",
  "382",
  "3820",
  "38200",
  "3830",
  "384.00",
  "3840",
  "38400",
  "386.00",
  "388",
  "388.00",
  "388.000.000",
  "389.00",
  "38900",
  "39",
  "39'400.00",
  "39.00",
  "39.20",
  "390",
  "390.00",
  "390.501.000",
  "3900",
  "39000",
  "39100",
  "39200",
  "394.00",
  "39400",
  "39500",
  "396.00",
  "39600",
  "3962",
  "39700",
  "39800",
  "399.00",
  "399.000.000",
  "39900",
  "3N",
  "3a.m",
  "3a.m.",
  "3eo",
  "3n",
  "3p.m",
  "3p.m.",
  "4",
  "4'000.00",
  "4'085.00",
  "4'160.00",
  "4'200.00",
  "4'320.00",
  "4'354.00",
  "4'400.00",
  "4'424.00",
  "4'444.95",
  "4'470.00",
  "4'476.00",
  "4'484.00",
  "4'629.00",
  "4'675.00",
  "4'800.00",
  "4'845.00",
  "4'976.00",
  "4,2",
  "4,6",
  "4,8",
  "4,9",
  "4.1",
  "4.2",
  "4.50",
  "4.60",
  "4.62",
  "4.7",
  "40",
  "40.00",
  "40.50",
  "40/56",
  "400",
  "4000",
  "40000",
  "401.100.000",
  "4010",
  "40100",
  "402.00",
  "4020",
  "40200",
  "4030",
  "40300",
  "4040",
  "40400",
  "405.00",
  "40600",
  "407.50",
  "40700",
  "40800",
  "40900",
  "40L",
  "40x25",
  "41",
  "41,5",
  "41,5x",
  "41.00",
  "410",
  "4100",
  "41000",
  "411",
  "411.00",
  "411.000.000",
  "41100",
  "4111",
  "412",
  "412.00",
  "412.100.000",
  "412.50",
  "412.501.000",
  "41200",
  "413",
  "41300",
  "4131",
  "4133",
  "414.00",
  "41400",
  "415",
  "41500",
  "4151",
  "416",
  "417",
  "417.000.000",
  "4170",
  "4171",
  "4173",
  "418.00",
  "41800",
  "4189.00",
  "419",
  "42",
  "42,5",
  "42.00",
  "42.5",
  "420",
  "420.00",
  "420.000.000",
  "4200",
  "42010",
  "42020",
  "42030",
  "421",
  "421.000.000",
  "421.100.000",
  "4210",
  "422",
  "422.100.000",
  "4220",
  "4220004434",
  "4230",
  "4240",
  "42430",
  "42440",
  "425",
  "42500",
  "426.00",
  "42600",
  "427.00",
  "4270",
  "42700",
  "428.000.000",
  "4280",
  "42800",
  "42900",
  "43",
  "43'000.00",
  "43'400.00",
  "43,5",
  "43.00",
  "430",
  "430.000.000",
  "4300",
  "43000",
  "431",
  "43100",
  "432.00",
  "43200",
  "433.00",
  "4330",
  "434",
  "434.00",
  "4340",
  "43400",
  "435",
  "435.000.000",
  "43500",
  "436.00",
  "43600",
  "43700",
  "438.00",
  "43900",
  "44",
  "44.00",
  "44.44",
  "44.50",
  "440",
  "440.00",
  "4400",
  "44000",
  "441",
  "4410",
  "44100",
  "442.00",
  "4420",
  "4430",
  "44300",
  "444.00",
  "4440",
  "445",
  "4450",
  "446.50",
  "448.00",
  "44900",
  "45",
  "45.00",
  "45.50",
  "45.60",
  "450",
  "450.00",
  "450.100.000",
  "4500",
  "4500.00",
  "45000",
  "451",
  "451.05",
  "451/453/454/455/473/476",
  "45100",
  "4512",
  "452.00",
  "45200",
  "453.100.000",
  "4531",
  "4535",
  "454.00",
  "454.501.000",
  "4540.00",
  "4541",
  "455.00",
  "45600",
  "457",
  "457.100.000",
  "458",
  "458/457",
  "459.00",
  "459.03",
  "46.00",
  "46.50",
  "46.76",
  "460",
  "460.00",
  "4600",
  "4600.00",
  "4603.50",
  "461",
  "4610",
  "4611",
  "4612",
  "462.00",
  "4620",
  "4621",
  "463.00",
  "463.501.000",
  "4630",
  "464.501.000",
  "4640",
  "465.00",
  "465.50",
  "4651",
  "4680.00",
  "46900",
  "47",
  "47.00",
  "47.50",
  "470",
  "470.000.000",
  "4700",
  "47000",
  "47100",
  "4711",
  "472.00",
  "4721",
  "47300",
  "4733",
  "475.00",
  "475/477",
  "47500",
  "476",
  "476.00",
  "477",
  "477.00",
  "4772",
  "478.100.000",
  "479.100.000",
  "47x47x33",
  "48",
  "48.00",
  "48.50",
  "480",
  "480.00",
  "4800",
  "484.00",
  "485.00",
  "485.100.000",
  "486.00",
  "488.00",
  "49",
  "49'760.00",
  "49.50",
  "490.00",
  "490.100.000",
  "4900",
  "492.48",
  "494.00",
  "495.00",
  "49x39",
  "4a.m",
  "4a.m.",
  "4p.m",
  "4p.m.",
  "5",
  "5'200.00",
  "5'232.00",
  "5'280.00",
  "5'448.00",
  "5'760.00",
  "5'800.00",
  "5'841.00",
  "5.40",
  "5.5",
  "5.60",
  "5.70",
  "5.9",
  "5/4",
  "50",
  "50.00",
  "50/56",
  "500",
  "5000",
  "501.100.000",
  "503.100.000",
  "503/504",
  "504",
  "504.00",
  "504.100.000",
  "505.100.000",
  "507.00",
  "50L",
  "50x40",
  "51",
  "51.00",
  "51.50",
  "510",
  "510.00",
  "5100",
  "5100.00",
  "511",
  "511.000.000",
  "511.100.000",
  "5113",
  "512",
  "512.00",
  "513.00",
  "514.000.000",
  "515.00",
  "515.000.000",
  "516.00",
  "516.000.000",
  "516.42",
  "517/518",
  "518",
  "52",
  "52.00",
  "52.43",
  "52.50",
  "520",
  "520.00",
  "5200",
  "521",
  "5210",
  "522",
  "5220",
  "524.523.000",
  "525.00",
  "526.00",
  "527.501.000",
  "528.00",
  "529",
  "5299",
  "53",
  "53'952.16",
  "53.00",
  "530",
  "5300",
  "5305",
  "531",
  "5310",
  "532.50",
  "534.00",
  "534.501.000",
  "535",
  "536.00",
  "537.523.000",
  "539.00",
  "53x",
  "54",
  "54.00",
  "540",
  "5400",
  "541",
  "5410",
  "5411",
  "5419",
  "542",
  "542.00",
  "542.502.000",
  "5420",
  "543",
  "547",
  "548.00",
  "549",
  "549.00",
  "55",
  "55'561.86",
  "55.00",
  "55.50",
  "550",
  "550.00",
  "550.100.000",
  "5500",
  "551.00",
  "5510",
  "552.00",
  "552.502.000",
  "5520",
  "553.00",
  "5530",
  "554.32",
  "554.502.000",
  "5540",
  "555.00",
  "5550",
  "558.00",
  "56",
  "56.00",
  "560",
  "560.00",
  "5600",
  "561",
  "561.000.000",
  "5610",
  "562.00",
  "5620",
  "563.523.000",
  "5630",
  "564.00",
  "564.502.000",
  "5640",
  "565.00",
  "5650",
  "569.00",
  "57'800.00",
  "57,3",
  "57.00",
  "57.50",
  "570",
  "570.00",
  "5700",
  "571",
  "576.00",
  "576.42",
  "58.00",
  "58.50",
  "5800",
  "5827.01",
  "583",
  "583.100.000",
  "584.00",
  "588.00",
  "589.00",
  "59'200.00",
  "59.50",
  "590",
  "590.000.000",
  "590.523.000",
  "5900",
  "591.000.000",
  "5910",
  "5920",
  "593.501.000",
  "594.00",
  "595.502.000",
  "597.00",
  "5a.m",
  "5a.m.",
  "5p.m",
  "5p.m.",
  "6",
  "6'004.00",
  "6'120.00",
  "6'203.70",
  "6'220.00",
  "6'435.65",
  "6'536.00",
  "6'600.00",
  "6'700.00",
  "6'870.35",
  "6'916.65",
  "6'981.80",
  "6'992.00",
  "6,3",
  "6,4",
  "6,5",
  "6,8",
  "6.3",
  "6.5",
  "6.93",
  "60",
  "60'006.80",
  "60.00",
  "600",
  "600.00",
  "6000",
  "602",
  "602.00",
  "602.100.000",
  "603.00",
  "604.00",
  "605X",
  "605x",
  "60L",
  "60x",
  "60x45",
  "60x60",
  "61",
  "61.50",
  "610",
  "610.00",
  "6100",
  "611",
  "6111",
  "6114",
  "6116",
  "6119",
  "612",
  "612.00",
  "612.100.000",
  "613.000.000",
  "6152",
  "6156",
  "6157.40",
  "616.00",
  "617.00",
  "618.00",
  "62",
  "62.00",
  "62.50",
  "620",
  "6200",
  "621",
  "6210",
  "622.00",
  "622.501.000",
  "6220",
  "623",
  "6230",
  "6240",
  "627.00",
  "629.28",
  "63.00",
  "630",
  "630.00",
  "6300",
  "6310",
  "6320",
  "6321",
  "6323",
  "6330",
  "6350",
  "637.00",
  "637.26",
  "639.00",
  "64.00",
  "64.40",
  "640",
  "640.00",
  "6400",
  "6416",
  "646.00",
  "648.00",
  "65",
  "65.50",
  "650",
  "6500",
  "651",
  "6511",
  "652.00",
  "6521",
  "6531",
  "6541",
  "6542",
  "6543",
  "6547",
  "655.50",
  "656.64",
  "6561",
  "6571",
  "659.00",
  "65x57",
  "66",
  "66'542.38",
  "66.00",
  "660.00",
  "6600",
  "6650",
  "666.00",
  "67",
  "67.00",
  "67.50",
  "670",
  "6700",
  "6712",
  "672.00",
  "6723",
  "675.00",
  "678",
  "68",
  "68.00",
  "6800",
  "682.86",
  "683.00",
  "686.00",
  "687",
  "69",
  "69.00",
  "69.50",
  "690",
  "690.00",
  "6900",
  "693.50",
  "694.523.000",
  "6950",
  "6960",
  "6a.m",
  "6a.m.",
  "6m2",
  "6p.m",
  "6p.m.",
  "7",
  "7'205.26",
  "7'236.00",
  "7'300.00",
  "7'480.00",
  "7'530.00",
  "7'600.00",
  "7'781.70",
  "7,3",
  "7.00",
  "7.13.4",
  "7.13.5",
  "7.14.1",
  "7.14.2",
  "7.2",
  "7.5",
  "7.60",
  "7.70",
  "7.9",
  "70",
  "70'740.33",
  "70.00",
  "70.50",
  "700",
  "700.00",
  "7000",
  "7050",
  "706.00",
  "707.94",
  "70x",
  "71",
  "710",
  "7100",
  "7100.00",
  "711",
  "7111",
  "7113",
  "712",
  "712.00",
  "713",
  "714.00",
  "715.00",
  "717.000.000",
  "718",
  "72",
  "72'837.58",
  "72.00",
  "720",
  "720.00",
  "7200",
  "721",
  "7211",
  "723",
  "727.00",
  "73",
  "730",
  "7300",
  "731.501.000",
  "7311",
  "732.00",
  "7321",
  "733",
  "7333",
  "7362",
  "73x51",
  "74.00",
  "74.50",
  "740",
  "740.00",
  "7400",
  "7410",
  "7412",
  "7413",
  "7420",
  "7430",
  "745.502.000",
  "746.00",
  "75",
  "75'600.00",
  "75.00",
  "75.75",
  "750",
  "750.00",
  "750.341.000",
  "7500",
  "7521",
  "756.00",
  "76,3",
  "76.00",
  "76.38",
  "76.50",
  "760",
  "7600",
  "762",
  "762.00",
  "765.00",
  "77",
  "77.00",
  "77.50",
  "770",
  "7700",
  "7710",
  "7711",
  "7715.00",
  "772",
  "772.00",
  "7720",
  "7730",
  "7740",
  "7750",
  "7776.00",
  "779.00",
  "78'664.60",
  "78'800.00",
  "78.00",
  "780",
  "780.00",
  "7800",
  "781.000.000",
  "781.501.000",
  "784.00",
  "785",
  "79",
  "790",
  "7900",
  "791.00",
  "791.000.000",
  "792.00",
  "794.00",
  "798.00",
  "7>-",
  "7a.m",
  "7a.m.",
  "7p.m",
  "7p.m.",
  "8",
  "8'246.00",
  "8'360.00",
  "8'569.95",
  "8'580.00",
  "8'600.00",
  "8'670.00",
  "8'721.57",
  "8)",
  "8,3",
  "8,5",
  "8,6",
  "8-",
  "8-)",
  "8-D",
  "8-d",
  "8.00",
  "8.3",
  "8.50",
  "8.6",
  "8.9406.2.000.000.1",
  "8/10",
  "80",
  "80.00",
  "800",
  "8000",
  "801",
  "801.104.000",
  "801.45",
  "801.523.000",
  "802.000.000",
  "802.100.000",
  "802.592.118",
  "80223",
  "803",
  "803.000.000",
  "803.523.000",
  "804.00",
  "805",
  "805.100.000",
  "807.00",
  "80L",
  "81",
  "81.00",
  "81.50",
  "810",
  "8100",
  "811.000.000",
  "8110",
  "8111",
  "8112",
  "8120",
  "813.100.000",
  "8130",
  "8140",
  "815",
  "8150",
  "817.00",
  "819.523.000",
  "82",
  "82'200.00",
  "82.00",
  "82.50",
  "820",
  "8200",
  "8211",
  "8220",
  "824.00",
  "8240",
  "826.00",
  "826.20",
  "828.00",
  "83",
  "83.70",
  "830",
  "830.523.000",
  "8300",
  "836.00",
  "836.03",
  "839",
  "839.100.000",
  "84.00",
  "840",
  "840.00",
  "8400",
  "841.000.000",
  "8410",
  "8420",
  "843.00",
  "8430",
  "844.100.000",
  "8440",
  "845.100.000",
  "846.501.000",
  "847",
  "847.100.000",
  "848",
  "849.100.000",
  "85",
  "85'400.00",
  "85.00",
  "85.50",
  "850",
  "8500",
  "854.00",
  "854.100.000",
  "859.50",
  "86",
  "86.00",
  "860",
  "8600",
  "861.000.000",
  "8610",
  "862.50",
  "862.501.000",
  "862.523.000",
  "8620",
  "863.523.000",
  "8630",
  "864.00",
  "8640",
  "867.501.000",
  "867.523.000",
  "87.00",
  "87.50",
  "870",
  "8700",
  "8710",
  "8720",
  "8730",
  "8740",
  "875.000.000",
  "876.00",
  "877",
  "878.000.000",
  "88",
  "88.00",
  "8800",
  "8810",
  "882.00",
  "8820",
  "884.100.000",
  "885.100.000",
  "886.523.000",
  "88x",
  "89",
  "89.00",
  "89.50",
  "890.000.000",
  "8900",
  "892.50",
  "892.501.000",
  "893.000.000",
  "896.00",
  "898",
  "899.100.000",
  "899.501.000",
  "8D",
  "8a.m",
  "8a.m.",
  "8d",
  "8p.m",
  "8p.m.",
  "9",
  "9'072.00",
  "9'200.00",
  "9'377.28",
  "9'400.00",
  "9'800.00",
  "9'952.00",
  "9,2",
  "9,5",
  "9,6",
  "9.00",
  "9.2",
  "9.5",
  "9.6",
  "90",
  "90.00",
  "900",
  "900.00",
  "9000",
  "909.00",
  "90x",
  "90x45",
  "90x60",
  "90x90",
  "90x90x",
  "90x90x15",
  "90x90x6,5",
  "91",
  "91.50",
  "910",
  "9100",
  "912.100.000",
  "918.00",
  "92",
  "92.00",
  "920",
  "920.000.000",
  "9200",
  "921.50",
  "921.501.000",
  "9210.00",
  "925.00",
  "927.100.000",
  "93",
  "93.00",
  "930",
  "9300",
  "9312.00",
  "933",
  "935.00",
  "937",
  "94.00",
  "940",
  "9400",
  "9410",
  "9420",
  "944.00",
  "944.501.000",
  "9440",
  "949.30",
  "949.501.000",
  "95",
  "95'000.00",
  "95.50",
  "950",
  "950.00",
  "9500",
  "954.00",
  "96",
  "96.00",
  "96.50",
  "960",
  "960.00",
  "9600",
  "962",
  "969.00",
  "97.00",
  "9700",
  "978.00",
  "98.00",
  "98.50",
  "9800",
  "984.00",
  "986.86",
  "99",
  "99.00",
  "99.50",
  "990.00",
  "990.000.000",
  "9900",
  "991.000.000",
  "996.04",
  "997.50",
  "999",
  "999.999.999",
  "9999",
  "9I",
  "9a.m",
  "9a.m.",
  "9i",
  "9p.m",
  "9p.m.",
  ":",
  ":'(",
  ":')",
  ":'-(",
  ":'-)",
  ":(",
  ":((",
  ":(((",
  ":()",
  ":)",
  ":))",
  ":)))",
  ":*",
  ":-(",
  ":-((",
  ":-(((",
  ":-)",
  ":-))",
  ":-)))",
  ":-*",
  ":-/",
  ":-0",
  ":-3",
  ":->",
  ":-D",
  ":-O",
  ":-P",
  ":-X",
  ":-]",
  ":-d",
  ":-o",
  ":-p",
  ":-x",
  ":-|",
  ":-}",
  ":/",
  ":0",
  ":05",
  ":06",
  ":08",
  ":1",
  ":11",
  ":12",
  ":19",
  ":22",
  ":23",
  ":3",
  ":32",
  ":40",
  ":41",
  ":50",
  ":52",
  ":55",
  ":57",
  ":59",
  ":>",
  ":D",
  ":O",
  ":P",
  ":X",
  ":]",
  ":d",
  ":o",
  ":o)",
  ":p",
  ":x",
  ":x)",
  ":|",
  ":}",
  ":\u2019(",
  ":\u2019)",
  ":\u2019-(",
  ":\u2019-)",
  ";",
  ";)",
  ";-)",
  ";-D",
  ";-X",
  ";-d",
  ";D",
  ";X",
  ";_;",
  ";d",
  "<",
  "<.<",
  "</3",
  "</d",
  "<3",
  "<33",
  "<333",
  "<d",
  "<dd",
  "<ddd",
  "<space>",
  "<xxxx>",
  "=",
  "=(",
  "=)",
  "=/",
  "=3",
  "=D",
  "=X",
  "=[",
  "=]",
  "=d",
  "=|",
  ">",
  ">.<",
  ">.>",
  ">:(",
  ">:o",
  ">:x",
  "><(((*>",
  ">\u201dT",
  "?",
  "@",
  "@@",
  "@_@",
  "@a@e",
  "@eo",
  "@x@x",
  "A",
  "A&__alD",
  "A++",
  "A+++",
  "A175",
  "A1=",
  "A3,4",
  "A417",
  "A70",
  "A770",
  "A7O.cm",
  "AB",
  "AB14",
  "AD",
  "AEERT",
  "AGB",
  "AH",
  "AMA",
  "AN",
  "AN/",
  "ANGEBOT",
  "ANMW",
  "AP",
  "AP128",
  "APU-151.3",
  "ARE",
  "ASS",
  "AU",
  "Aa",
  "Abbildung",
  "Abdeckplatte",
  "Abdeckung",
  "Abfallbeh\u00e4lter",
  "Abfalleimer",
  "Abgang",
  "Abgangsrohr",
  "Abkl\u00e4rung",
  "Ablage",
  "Ablagebox",
  "Ablauf",
  "Ablaufbogen",
  "Ablaufdeckel",
  "Ablaufgarnitur",
  "Ablaufhaube",
  "Ablaufmanschette",
  "Ablaufschlauch",
  "Ablaufventil",
  "Ableitung",
  "Absaugesifon",
  "Absenkautomatik",
  "Absperrung",
  "Absperrventile",
  "Abstellfl\u00e4che",
  "Abstellverschrau-",
  "Abstellverschraub-",
  "Abstellverschraubung",
  "Abstellverschraubungen",
  "Abst\u00fctz",
  "Accessoire",
  "Adapter",
  "Adapterplatten",
  "Adm",
  "Adm.",
  "Adora",
  "Ai",
  "Air",
  "Airblade",
  "Ak",
  "Ak.",
  "Aktionen",
  "Al",
  "Ala",
  "Ala.",
  "Alabama",
  "Alaska",
  "Ali",
  "Alterna",
  "Aluminium",
  "Aluminiumprofil",
  "Am",
  "An",
  "Anfahrtspauschale",
  "Angebot",
  "Anklemmen",
  "Anlagen",
  "Ann\u00e4herungssensor",
  "Anschluss",
  "Anschluss-",
  "Anschlussbogen",
  "Anschlussrohr",
  "Anschlussstutzen",
  "Anschlusstutzen",
  "Anschlusswinkel",
  "Anschl\u00fcsse",
  "Anstalten",
  "Apr",
  "Apr.",
  "April",
  "AquaClean",
  "AquaJet",
  "Ar",
  "Ar+",
  "Are",
  "Ariz",
  "Ariz.",
  "Arizona",
  "Ark",
  "Ark.",
  "Arkansas",
  "Armaturen",
  "Armaturen-",
  "Armaturenloch",
  "Armaturenl\u00f6cher",
  "Armaturenplatte",
  "Armhebel",
  "Arretierung",
  "Arretierungs-",
  "Art",
  "Art.10.14388",
  "Art.10.25877",
  "Art.10.27026",
  "Art.115.943.21.1",
  "Art.162.055.01.02.30",
  "Art.2000056898",
  "Art.2000056933",
  "Art.2000056937",
  "Art.2000057150",
  "Art.2000100020",
  "Art.2000102678",
  "Art.2000103670",
  "Art.200100088",
  "Art.21.062.530.000",
  "Art.2329650000",
  "Art.433133030001",
  "Art.687740470999",
  "Art.7.81025.441.000",
  "Art.8.1895.8.000.142.1",
  "Art.801.35.21S",
  "Artikel",
  "Arwa",
  "At",
  "Attikawohnung",
  "Au",
  "Aufenthaltsraum",
  "Aufputzmontage",
  "Aufstecken",
  "Aug",
  "Aug.",
  "August",
  "Ausf\u00fchrung",
  "Ausgabe",
  "Ausguss",
  "Ausgussbecken",
  "Ausladung",
  "Auslauf",
  "Auslaufventil",
  "Auszugbrause",
  "B",
  "B.",
  "B14",
  "B26607D",
  "BA91WS020",
  "BAG",
  "BB",
  "BE",
  "BF",
  "BO",
  "BOT",
  "BP",
  "BR",
  "BS302",
  "BS303",
  "BS340",
  "BX150L",
  "BX180L",
  "BX240L",
  "BX60L",
  "BXC",
  "BXC240",
  "BXSV14",
  "BXSV18",
  "BXSV24",
  "BZ",
  "BZJ",
  "Bade-",
  "Badetuchstange",
  "Badewannentr\u00e4ger",
  "Bag",
  "Ban",
  "Band",
  "Bar",
  "Basic",
  "Bauseits",
  "Be",
  "Becken",
  "Bee",
  "Bef.-Material",
  "Befestigung",
  "Befestigungen",
  "Befestigungs-",
  "Befestigungsflansch",
  "Befestigungsflanschen",
  "Befestigungsmaterial",
  "Befestigungsrahmen",
  "Befestigungsset",
  "Bef\u00fcllung",
  "Bei",
  "Beilage",
  "Bekon",
  "Belastung",
  "Beleuchtung",
  "Beleutung",
  "Ber",
  "Ber-",
  "Beton",
  "Betonboden",
  "Betreuung",
  "Betreuungsraum",
  "Bet\u00e4tigung",
  "Bet\u00e4tigungsgarnitur",
  "Bi",
  "Bidet",
  "Bidet-",
  "Bitte",
  "Bitumenmatten",
  "Bj",
  "Bm",
  "Bobrick",
  "Bodenschatz",
  "Bohrungen",
  "Bolero",
  "Box",
  "Br",
  "Brause",
  "Brausenschlauch",
  "Brauseschlauch",
  "Breite",
  "Bros",
  "Bros.",
  "Bu",
  "BxHxT",
  "B\u00fcrste",
  "B\u00fcrstenhaltern",
  "C",
  "C'm",
  "C++",
  "CHA",
  "CHF",
  "CHRX690",
  "CI",
  "CIV",
  "CNTX",
  "CNTX400NE",
  "CONOFLAT",
  "CWS",
  "Ca",
  "Cafeteria",
  "Calif",
  "Calif.",
  "California",
  "Can",
  "Caprino",
  "Catalano",
  "Cause",
  "Chic'07",
  "Chic'14",
  "Chrom",
  "Chromnickelstahl",
  "City",
  "Citypro",
  "Class",
  "Classic",
  "ClickClack",
  "Close",
  "Co",
  "Co.",
  "Colo",
  "Colo.",
  "Colorado",
  "Compact",
  "Conn",
  "Conn.",
  "Connecticut",
  "Contina",
  "Corp",
  "Corp.",
  "Cos",
  "Could",
  "Coz",
  "Creativa",
  "Cu",
  "Cuz",
  "C\u2019m",
  "D",
  "D.",
  "D.2",
  "D.C.",
  "D01",
  "DB",
  "DD",
  "DE",
  "DG",
  "DN",
  "DO01",
  "DS",
  "DUSCHPLAN",
  "DUSCHPLAN/",
  "DV",
  "DVS",
  "DZ",
  "Da",
  "Dachgeschoss",
  "Damen",
  "Dare",
  "De",
  "Dec",
  "Dec.",
  "December",
  "Deckel",
  "Deckenst\u00fctze",
  "Deckkappe",
  "Deckkappen",
  "Del",
  "Del.",
  "Delaware",
  "Deo",
  "Design",
  "Designgrip",
  "Desinfektion",
  "Desinfektionsmittelspender",
  "Di",
  "Dichtband",
  "Dichtschl\u00e4mme",
  "Dichtset",
  "Dicke",
  "Did",
  "Die",
  "Diese",
  "Digitalanzeige",
  "Din",
  "Distanzbolzen",
  "Do",
  "Does",
  "Doin",
  "Doin'",
  "Doin\u2019",
  "Dolano",
  "Domo",
  "Domo.5",
  "Doppel",
  "Doppelspiegelt\u00fcre",
  "Doppelspiegelt\u00fcren",
  "Doppelsteckdose",
  "Doppelsteckdosen",
  "Doppelventil",
  "Doppelwaschtisch",
  "Dr",
  "Dr.",
  "Drahtseifenhalter",
  "Drehwirbel",
  "Du",
  "Duofix",
  "Dura",
  "DuraStyle",
  "Durchf\u00fchrung",
  "Dusch",
  "Duschablage",
  "Duschablauf",
  "Dusche",
  "Duschelement",
  "Duschengleitstange",
  "Duschenmischer",
  "Duschenraum",
  "Duschensteuerung",
  "Duschenvorhang",
  "Duschenvorhangschiene",
  "Duschenvorhangstange",
  "Duschenwanne",
  "Duschenwannen",
  "Duschenwannenelement",
  "Duschenwannengarnitur",
  "Duschenwannentr\u00e4ger",
  "Duschgleitstange",
  "Duschhocker",
  "Duschplan",
  "Duschtrennwand",
  "Duschvorhang",
  "Duschwannen",
  "Dyson",
  "D\u00fcbel",
  "D\u00fcbelschraube",
  "D\u00fcbelschrauben",
  "E",
  "E.",
  "E.G.",
  "E.g",
  "E.g.",
  "E00",
  "E=",
  "ED",
  "EEE",
  "EEHM",
  "EERN",
  "EG",
  "EHM",
  "EI",
  "EIER",
  "EM",
  "ER",
  "ERN",
  "ERT",
  "ES",
  "ESR",
  "ESTRX687",
  "ET",
  "EV",
  "EVG",
  "EXOS",
  "EZ",
  "Easy",
  "EasyFit",
  "Echtglas",
  "Eckausgleichsprofile",
  "Eckdichtungen",
  "Eckhaltegriff",
  "Eckmodell",
  "Eckventil",
  "Edelstahl",
  "Edelstahlrost",
  "Edelstahlschrauben",
  "Eh",
  "Ei",
  "Eimer",
  "Ein-",
  "Einbau",
  "Einbaukosten",
  "Einbausifon",
  "Einbausp\u00fclkasten",
  "Eingang",
  "Einh\u00e4nges\u00e4cke",
  "Einlaufgarnitur",
  "Einlocharmatur",
  "Einlochmischer",
  "Eisengitter",
  "El",
  "Elegance",
  "Element",
  "Elemente",
  "Elualine",
  "En",
  "Endmontageset",
  "Endst\u00fccke",
  "Energieeffizienz",
  "Energieeffizienzklasse",
  "Ep",
  "Er",
  "Erdgeschoss",
  "Erhalt",
  "Es",
  "Esssaal",
  "Eu",
  "EuraSpiegel",
  "Export",
  "Exzenterscheiben",
  "Exzenterventil",
  "Ey",
  "F",
  "FE",
  "FERIEN",
  "FH",
  "FI",
  "FITEN",
  "FL",
  "FLEXZARGE",
  "FR",
  "FREI",
  "FT",
  "FU",
  "Fallsicherung",
  "Falthandt\u00fccher",
  "Far",
  "Farbe",
  "Fe",
  "Feb",
  "Feb.",
  "February",
  "Fernausl\u00f6sung",
  "Festelement",
  "Feuchtigkeitsschutz",
  "Fi",
  "Filter",
  "Fit",
  "Fix",
  "Fl",
  "Fla",
  "Fla.",
  "Flansch",
  "Flansche",
  "Florida",
  "Fl\u00fcssigseife",
  "Foam",
  "Folgende",
  "Fr",
  "Franke",
  "Fre",
  "Front",
  "Fundo",
  "Funktion",
  "Fussbet\u00e4tigung",
  "Fussst\u00fctze",
  "F\u00fcllmenge",
  "F\u00fcr",
  "F\u00fcsse",
  "G",
  "G01",
  "G1",
  "GABAG",
  "GC",
  "GE",
  "GG",
  "GIS",
  "Ga",
  "Ga.",
  "Ganzmetall",
  "Garderobe",
  "Garnituren",
  "Gartenventil",
  "Gastro",
  "Gau",
  "Ge",
  "Geberit",
  "Geberit-",
  "Geb\u00fchr",
  "Geh\u00e4use",
  "Gelenkhalter",
  "Gemeinschafts",
  "Gen",
  "Gen.",
  "Georgia",
  "Ger\u00e4uschgruppe",
  "Ger\u00e4uschklasse",
  "Gesamtbetrag",
  "Gesamteinbauh\u00f6he",
  "Geschirrwaschbrause",
  "Getr\u00e4nke",
  "Gewerbe",
  "Gewinde",
  "Gewindebolzen",
  "Gi",
  "Gitter",
  "Glas-",
  "Glasbau",
  "Glasdicke",
  "Glashalter",
  "Gleiter",
  "Gleitgelenkhalter",
  "Gleitt\u00fcre",
  "Goin",
  "Goin'",
  "Goin\u2019",
  "Gon",
  "Got",
  "Gov",
  "Gov.",
  "Grad",
  "Griff",
  "Grundprogramme",
  "Gruppe",
  "Gummi",
  "Gummi-",
  "Gummiband",
  "Gummib\u00e4nder",
  "Gummid\u00fcbel",
  "Gummih\u00fclsen",
  "Gummiunter-",
  "Gummiunterlagen",
  "Gut",
  "H",
  "HA",
  "HAFNER",
  "HAMA",
  "HARNER",
  "HDTX0001",
  "HE",
  "HE-001",
  "HE-002",
  "HEN",
  "HET",
  "HN",
  "HN2",
  "HN6",
  "HN8",
  "HT",
  "Haartrockner",
  "Had",
  "Hafner",
  "Haftbleche",
  "Haltegriff",
  "Haltegriffe",
  "Handbrause",
  "Handdr\u00fccker",
  "Handrad",
  "Handtuchhaken",
  "Handtuchhalter",
  "Handtuchreling",
  "Handwaschbecken",
  "Hansgrohe",
  "Happy",
  "Has",
  "Haspel",
  "Haubenablaufventil",
  "Haupteneriezentral",
  "Hauswart",
  "Have",
  "Havin",
  "Havin'",
  "Havin\u2019",
  "He",
  "He's",
  "Heavy",
  "Hebels",
  "Her",
  "Herren",
  "Hewi",
  "He\u2019s",
  "Hi",
  "Hin",
  "Hinterf\u00fctterung",
  "Hinweis",
  "Hinweise",
  "Hitzebest\u00e4ndig",
  "Hl",
  "Holder",
  "Holz",
  "How",
  "How's",
  "How\u2019s",
  "Hr",
  "HxT",
  "Hygienebeutel",
  "Hygienebeutelpackung",
  "Hygienebeutelspender",
  "Hygienebox",
  "Hygieneeinheit",
  "Hygienesp\u00fclung",
  "Hygolet-",
  "H\u00e4ndetrockner",
  "H\u00f6he",
  "I",
  "I.E.",
  "I.e",
  "I.e.",
  "I@@",
  "IE",
  "IEN",
  "IER",
  "IF",
  "IHN",
  "II",
  "II/",
  "IL",
  "IN",
  "INA",
  "INEE",
  "INH",
  "INS",
  "INTER",
  "IP",
  "IR",
  "IS",
  "ISO",
  "ISs",
  "IT",
  "IV",
  "Ia",
  "Ia.",
  "Id",
  "Id.",
  "Idaho",
  "If",
  "Ihr",
  "Ik",
  "Il",
  "Ill",
  "Ill.",
  "Illinois",
  "In",
  "Inc",
  "Inc.",
  "Ind",
  "Ind.",
  "Indiana",
  "IneoLine",
  "Ineoline",
  "Infrarotsensoren",
  "Inhalt",
  "Injektionsanker",
  "Injektionsm\u00f6rtel",
  "Inkl",
  "Innen",
  "Innenecken",
  "InoxPlus",
  "Insassen",
  "Installation",
  "Installationen",
  "Installationshinweis",
  "Integro",
  "Invaliden",
  "Iowa",
  "Ir",
  "Is",
  "Isa",
  "Isoset",
  "It",
  "It's",
  "It\u2019s",
  "J",
  "JH",
  "Jan",
  "Jan.",
  "January",
  "Japanmesser",
  "Je",
  "Jet",
  "Jr",
  "Jr.",
  "Jul",
  "Jul.",
  "July",
  "Jun",
  "Jun.",
  "June",
  "Junior",
  "K",
  "K90",
  "KH",
  "KR",
  "KT",
  "KWC",
  "KWCFit",
  "KWO",
  "Kaldewei",
  "Kaltwasser",
  "Kan",
  "Kan.",
  "Kans",
  "Kans.",
  "Kansas",
  "Kapillarschutz",
  "Kapillarschutzband",
  "Kar",
  "Kare",
  "Kartusche",
  "Kentucky",
  "Keramik",
  "Keramikwaschtische",
  "Kettenventil",
  "Kettenzug",
  "Keuco",
  "Ki",
  "Kir",
  "Kl",
  "Klappdeckel",
  "Klappgriff",
  "Klappgrifi",
  "Klapprost",
  "Klappsitz",
  "Klarglas",
  "Klartextanzeige",
  "Klasse",
  "Klassenzimmer",
  "Kleberset",
  "Kleiderhaken",
  "Kleinboiler",
  "Kleinklassenzimmer",
  "Klemmverschraubung",
  "Klingenmesser",
  "Klosett",
  "Klosettb\u00fcrstenhalter",
  "Klosettsitz",
  "Knaben",
  "Koala",
  "Kombi",
  "Kombiablaufset",
  "Kombination",
  "Kombiwerkstatt",
  "Kondenswasserablaufschlauch",
  "Konsolen",
  "Kontrollschlitz",
  "Koralle",
  "Korridor",
  "Kt",
  "Kugler",
  "Kunststeintrog",
  "Kunststoff",
  "Kunststoffd\u00fcbel",
  "Kunststoffgeh\u00e4use",
  "Kupferrohr",
  "Ky",
  "Ky.",
  "K\u00f6rper",
  "K\u00fcche",
  "L",
  "L10",
  "LADOPLAN",
  "LAN",
  "LAT",
  "LDA",
  "LED",
  "LIE",
  "LM",
  "LTJ450",
  "LTJ500",
  "LURH",
  "LUS",
  "LW",
  "LW2.0087.583",
  "LWA.0033.583",
  "La",
  "La.",
  "Lager",
  "Lang",
  "Laufen",
  "Laufzeit",
  "Lavabo",
  "Lavinox",
  "Le",
  "Leckwasserschutz",
  "Leerrohr",
  "Lehrer",
  "Leichtbauw\u00e4nde",
  "Leichtbeton",
  "Lema",
  "Let",
  "Let's",
  "Let\u2019s",
  "Liberty",
  "Libertyline",
  "Lief",
  "Lieferfrist",
  "LifeSystem",
  "Line",
  "Liter",
  "Lo",
  "Lochziegel",
  "Lose",
  "Louisiana",
  "Lovin",
  "Lovin'",
  "Lovin\u2019",
  "Ltd",
  "Ltd.",
  "Luftkondensator",
  "Lux",
  "L\u00e4nge",
  "L\u00e4ngsseite",
  "M",
  "M10",
  "M12",
  "M500HD",
  "M8",
  "MA",
  "MAS",
  "MASS",
  "MD",
  "MER",
  "MH",
  "MM",
  "Ma'am",
  "Magnete",
  "Magnetventil",
  "Manschettengarnitur",
  "Mar",
  "Mar.",
  "March",
  "Marx",
  "Mass",
  "Mass.",
  "Massachusetts",
  "Massaufnahme",
  "Masse",
  "Massspiegel",
  "Materialst\u00e4rke",
  "Mauerdicke",
  "May",
  "May.",
  "Ma\u2019am",
  "Md",
  "Md.",
  "Me",
  "Medikamente",
  "Medizinausgabe",
  "Mehrzweckbecken",
  "Mengen",
  "MeplaFix",
  "Messer",
  "Messing",
  "Messrs",
  "Messrs.",
  "Metall",
  "Metalleffekt",
  "Metallspiegel",
  "Mi",
  "Mich",
  "Mich.",
  "Michigan",
  "Might",
  "Mineralfasermatte",
  "Minn",
  "Minn.",
  "Minnesota",
  "Miranit",
  "Mischer",
  "Miss",
  "Miss.",
  "Mississippi",
  "Mitte",
  "Mitten",
  "Mm",
  "Mn",
  "Mo",
  "Mo.",
  "Modern",
  "Moderna",
  "Mont",
  "Mont.",
  "Montage",
  "Montage-",
  "Montagematerial",
  "Montagepauschale",
  "Montageplatte",
  "Montagerahmen",
  "Montageschaum",
  "Mount",
  "Mr",
  "Mr.",
  "Mrs",
  "Mrs.",
  "Ms",
  "Ms.",
  "Mt",
  "Mt.",
  "Multi",
  "Must",
  "Mutter",
  "MwSt",
  "M\u00e4dchen",
  "M\u00f6belwaschtisch",
  "N",
  "N.C.",
  "N.D.",
  "N.H.",
  "N.J.",
  "N.M.",
  "N.Y.",
  "NA",
  "NE",
  "NEE",
  "NER",
  "NMW",
  "NN",
  "NNEE",
  "NR",
  "NS",
  "NT",
  "NTX",
  "Nachbehandlungsraum",
  "Nasszelle",
  "Naturkunde",
  "Ne",
  "Neb",
  "Neb.",
  "Nebr",
  "Nebr.",
  "Nebraska",
  "Need",
  "Nero",
  "Nettobetrag",
  "Nettopreis",
  "Netz",
  "Netzbetrieb",
  "Netzger\u00e4t",
  "Nev",
  "Nev.",
  "Nevada",
  "New",
  "New Hampshire",
  "New Jersey",
  "New Mexico",
  "New York",
  "Niederdruck",
  "Nische",
  "Nord",
  "North Carolina",
  "North Dakota",
  "Nosag",
  "Not",
  "Nothin",
  "Nothin'",
  "Nothin\u2019",
  "Nov",
  "Nov.",
  "November",
  "Nr",
  "Ns",
  "Nu",
  "Nussbaum",
  "Nuthin",
  "Nuthin'",
  "Nuthin\u2019",
  "Nylon",
  "Nylonb\u00fcrste",
  "N\u0131as",
  "O",
  "O'clock",
  "O.O",
  "O.o",
  "O01",
  "OD",
  "ODX",
  "OL",
  "OP",
  "OVA",
  "OWS",
  "O_O",
  "O_o",
  "Oberfll\u00e4che",
  "Oberfl\u00e4che",
  "Obergeschoss",
  "Objek",
  "Objekt",
  "Oct",
  "Oct.",
  "October",
  "Oesen",
  "Office",
  "Okla",
  "Okla.",
  "Oklahoma",
  "Ol",
  "Ol'",
  "Ol\u2019",
  "Omega",
  "Omega20",
  "Ore",
  "Ore.",
  "Oregon",
  "Ought",
  "O\u2019clock",
  "P",
  "P2",
  "PE",
  "PEZ",
  "PG",
  "PLUS",
  "PN",
  "PP",
  "PR",
  "PS",
  "Pa",
  "Pa.",
  "Panzerschlauch",
  "Paper",
  "Paperbin",
  "Papierhalter",
  "Papierhandtuchspender",
  "Papierkorb",
  "Papierrollen",
  "Papierspender",
  "Patientenzimmer",
  "Patronen",
  "Pausenraum",
  "Pe",
  "Pen",
  "Pennsylvania",
  "Personal",
  "Pesonal",
  "Ph",
  "Ph.D.",
  "Pi",
  "Plan",
  "Plastik",
  "Plus",
  "Po",
  "Polster",
  "Polyamid",
  "Polyester",
  "Polyethylen",
  "Polypropylen",
  "Poresta",
  "Pos",
  "Position",
  "Positionen",
  "Pr",
  "Preis\u00fcbersicht",
  "Primo",
  "Pro",
  "Prof",
  "Prof.",
  "Programme",
  "Putzmaterial",
  "Putzraum",
  "Putztuch",
  "Q",
  "Quadro",
  "Quertraverse",
  "R",
  "RB",
  "REI",
  "RER",
  "RG",
  "RGE",
  "RI",
  "RK",
  "RO",
  "RODX",
  "ROOT",
  "RR",
  "RS",
  "RV",
  "Rahmen",
  "Raumausleuchtungen",
  "Raumsparmodell",
  "Recycling",
  "Regenerieren",
  "Regulierventil",
  "Reinigungstuch",
  "Rep",
  "Rep.",
  "Reqgulierventil",
  "Reserveklasse",
  "Reserverollenhalter",
  "Rev",
  "Rev.",
  "Rh",
  "Ri",
  "Ringe",
  "Rinne",
  "Rn",
  "Rodan",
  "Rohbauset",
  "Rohrbel\u00fcfter",
  "Rohrbogensifon",
  "Rohrb\u00e4nder",
  "Rohrdurchmesser",
  "Rolle",
  "Rollen",
  "Rollenhalter",
  "Rollstuhl",
  "Romay",
  "Rosette",
  "Rosetten",
  "Rundungsdifferenz",
  "R\u00fcckenlehne",
  "R\u00fcckenst\u00fctze",
  "R\u00fcckflussverhinderer",
  "R\u00fcckschlagventil",
  "R\u00fcckwand",
  "R\u00fcckwandbefestigungssatz",
  "R\u00fcsten",
  "S",
  "S.C.",
  "S600Plus",
  "S606Plus",
  "SB",
  "SE",
  "SERT",
  "SET",
  "SF",
  "SG",
  "SISs",
  "SM",
  "SO",
  "SPEZ",
  "SS",
  "ST",
  "SU40",
  "SUPERPLAN",
  "SUPERPLAN/",
  "SV",
  "SX",
  "SZ",
  "Sa",
  "Sackhalterung",
  "Sanaform",
  "Sanimatic",
  "Saturn",
  "Satz",
  "Scare",
  "Schaftventil",
  "Schall-",
  "Schalld\u00e4mmband",
  "Schallentkoppelungsstreifen",
  "Schallisolierung",
  "Schallschutz",
  "Schallschutzband",
  "Schallschutzmatte",
  "Schallschutzset",
  "Scharniere",
  "Scheiben",
  "Schlauch",
  "Schlauch-",
  "Schlauchanschluss",
  "Schlauchanschl\u00fcsse",
  "Schlauchansschl\u00fcsse",
  "Schlauchhaspel",
  "Schlaucht\u00fclle",
  "Schlauchver-",
  "Schlauchverschraubung",
  "Schloss",
  "Schmidlin",
  "Schneider",
  "Schnittschutz",
  "Schraubbefestigung",
  "Schrauben",
  "Schraubenl\u00f6cher",
  "Schraubenset",
  "Schraubf\u00fcsse",
  "Schulwandbrunnen",
  "Schutzband",
  "Schwallprofil",
  "Schwenk-",
  "Schwenkauslauf",
  "Scolaro",
  "Scuola",
  "Se",
  "See",
  "Sehallschutz",
  "Seifen",
  "Seifen-",
  "Seifenkonzentrat",
  "Seifenpatronen",
  "Seifenschale",
  "Seifenspender",
  "Seite",
  "Sek",
  "Sekunden",
  "Selbstentleerung",
  "Self",
  "Sen",
  "Sen.",
  "Sensor",
  "Sep",
  "Sep.",
  "Sept",
  "Sept.",
  "September",
  "Set",
  "Sha",
  "She",
  "She's",
  "She\u2019s",
  "Should",
  "Sicherheitspatrone",
  "Sichtschlitz",
  "Siduo",
  "Sie",
  "Sieb",
  "Sieb-",
  "Siebplatte",
  "Siebvent",
  "Siebventil",
  "Siemens",
  "Sifon",
  "Siga",
  "Sigma",
  "Sigma01",
  "Sigma10",
  "Sigma30",
  "Silent",
  "Silor",
  "Simifix",
  "Simiflex",
  "Similor",
  "Sitz",
  "Sitzfl\u00e4che",
  "Sitzh\u00f6he",
  "Slim",
  "So",
  "Soft",
  "Somethin",
  "Somethin'",
  "Somethin\u2019",
  "South Carolina",
  "Spetterinen",
  "Spez",
  "Spezialschrauben",
  "Spiegel",
  "Spiegelbefesti",
  "Spiegelbefestigung",
  "Spiegelbefestigungsset",
  "Spiegelklammern",
  "Spiegelschrank",
  "Spiegelschr\u00e4nke",
  "Spindel",
  "Spirella",
  "Sp\u00fcl-/Stopbet\u00e4tigung",
  "Sp\u00fclausl\u00f6sung",
  "Sp\u00fclkasten",
  "Sp\u00fclkastenmontage",
  "Sp\u00fclk\u00e4sten",
  "Sp\u00fclrohr",
  "Sp\u00fcltisch",
  "Sp\u00fcltische",
  "Sp\u00fcltischmischer",
  "Sp\u00fcltischsifongarnitur",
  "Sp\u00fclung",
  "Sr",
  "Ss",
  "Ss5",
  "St",
  "St.",
  "Stahl",
  "Stahlwannen",
  "Stainless",
  "Standbidets",
  "Standmodell",
  "Standrohr-",
  "Standrohrventil",
  "Standventil",
  "Stangensystem",
  "Star",
  "Startvorwahl",
  "Stauffer",
  "Steckbogen",
  "Steckdichtung",
  "Steckdose",
  "Steckhalter",
  "Steckschl\u00fcssel",
  "Steel",
  "Steinzeug",
  "Stellung",
  "Steuer-",
  "Steuerung",
  "Stk",
  "Stop-",
  "Stopfenbet\u00e4tigung",
  "Styropor",
  "St\u00fcck",
  "St\u00fctzklappgriff",
  "Su",
  "Supreme",
  "Surprise",
  "Swap",
  "Sydney",
  "System",
  "S\u00e4ule",
  "T",
  "TC",
  "TE",
  "TEN",
  "TER",
  "TH",
  "TL",
  "TS",
  "TSL",
  "TSL\\WP",
  "Tablar",
  "Talis",
  "Tamaro",
  "Taro",
  "Te",
  "Team",
  "Technikraum",
  "Teek\u00fcche",
  "Teek\u00fcchen",
  "Teil",
  "Temperatur",
  "Temperatur-",
  "Temperaturbegrenz-",
  "Temperaturw\u00e4hler",
  "Tenn",
  "Tenn.",
  "Tennessee",
  "That",
  "That's",
  "That\u2019s",
  "There",
  "There's",
  "There\u2019s",
  "Thermostat",
  "These",
  "These's",
  "These\u2019s",
  "They",
  "This",
  "This's",
  "This\u2019s",
  "Those",
  "Those's",
  "Those\u2019s",
  "Ti",
  "Tiefe",
  "Tipptasten",
  "To",
  "Toiletten",
  "Total",
  "Tr",
  "Trafo",
  "Transportkostenanteil",
  "Trennw\u00e4nde",
  "Trocken-",
  "Trockenautomat",
  "Trocknungszeit",
  "Tr\u00f6ge",
  "Typ",
  "Typ30",
  "T\u00fcre",
  "U",
  "U01",
  "U40",
  "UG",
  "UG01",
  "UP",
  "URH",
  "UZ1",
  "Ueberlauf",
  "Umgebung",
  "Un",
  "Uniflex",
  "Unimatic",
  "Universal",
  "Unterlagen",
  "Unterputzsifon",
  "Unterteil",
  "Up",
  "Ur",
  "Urinoir",
  "Urinoiranlage",
  "Urinoirelement",
  "Urinoirs",
  "Urinoirsteuerung",
  "V",
  "V.V",
  "V14",
  "V18",
  "V2",
  "V24",
  "V3N",
  "VS",
  "V_V",
  "Va",
  "Va.",
  "Variante",
  "Varius",
  "Ventilunterteil",
  "Verbindungsbausatz",
  "Vergr\u00f6sserungsspiegel",
  "Verkaufseinheit",
  "Vero",
  "Verschraubung",
  "Verschraubungen",
  "Vi",
  "Vie",
  "Virginia",
  "Vita",
  "Vital",
  "Vlieskaschiertes",
  "Vollelektronik",
  "Vorgezogene",
  "Vorhanggleiter",
  "Vorhangstange",
  "Vorraum",
  "Vorwandelement",
  "Vorwandmontage",
  "Vorwandsystem",
  "W",
  "W/",
  "W1",
  "W2=",
  "WB",
  "WC",
  "WCIV",
  "WE",
  "WI",
  "WJ",
  "WO",
  "WP",
  "WW",
  "Wallbox",
  "Wand",
  "Wandabstand",
  "Wandarmatur",
  "Wandausguss",
  "Wandbatterie",
  "Wandbecken",
  "Wandbidet",
  "Wandbrause",
  "Wandklosett",
  "Wandklosettelement",
  "Wandmischer",
  "Wandmontage",
  "Wandrosetten",
  "Wannen",
  "Wannendichtban",
  "Wannendichtband",
  "Wannenoberfl\u00e4chen-",
  "Wannenprofil",
  "Wannenrandprofil",
  "Was",
  "Wasch",
  "Waschautomat",
  "Waschautomaten",
  "Waschk\u00fcche",
  "Waschplatz",
  "Waschraum",
  "Waschrinne",
  "Waschtisch",
  "Waschtisch-",
  "Waschtischbefestigungen",
  "Waschtische",
  "Waschtischelement",
  "Waschtischen",
  "Waschtischkonsolen",
  "Waschtischsteuerung",
  "Waschtischst\u00e4nder",
  "Waschtrog",
  "Wash",
  "Wash.",
  "Washington",
  "Wasser",
  "Wasserablauf",
  "Wasseranschluss",
  "Wasserzu-",
  "WaxLy",
  "We",
  "Wechselplatte",
  "Wedi",
  "Were",
  "Werken",
  "Werkstatt",
  "What",
  "What's",
  "What\u2019s",
  "When",
  "When's",
  "When\u2019s",
  "Where",
  "Where's",
  "Where\u2019s",
  "Whirl-",
  "Who",
  "Who's",
  "Who\u2019s",
  "Why",
  "Why's",
  "Why\u2019s",
  "Wi",
  "Wichtige",
  "Wickeltisch",
  "Winkel",
  "Winkelgriff",
  "Wipp-",
  "Wis",
  "Wis.",
  "Wisconsin",
  "Wo",
  "Would",
  "Wr",
  "W\u00e4geli",
  "W\u00e4rmepumpe",
  "W\u00e4rmepumpentrockner",
  "W\u00e4schetrockner",
  "X&__xxX",
  "X'x",
  "X'xxxx",
  "X++",
  "X+++",
  "X.",
  "X.X",
  "X.X.",
  "X.d",
  "X.x",
  "X.x.",
  "X/",
  "X=",
  "X@@",
  "XD",
  "XDD",
  "XL/",
  "XOS",
  "XX",
  "XX-ddd",
  "XX/",
  "XXL",
  "XXL/",
  "XXX",
  "XXX-ddd.d",
  "XXX.dddd.ddd",
  "XXX/",
  "XXXX",
  "XXXX/",
  "XXXXdd",
  "XXXXddd",
  "XXXXdddXX",
  "XXXXdddd",
  "XXXXxx",
  "XXX\\XX",
  "XXXddd",
  "XXXx",
  "XXd",
  "XXd.dddd.ddd",
  "XXdd",
  "XXddX",
  "XXddXXddd",
  "XXddd",
  "XXdddX",
  "XXx",
  "X\\",
  "X_X",
  "X_x",
  "Xd",
  "Xd,d",
  "Xd=",
  "XdX",
  "XdX.xx",
  "Xdd",
  "Xddd",
  "XdddXX",
  "XdddXxxx",
  "XddddX",
  "Xx",
  "Xx'",
  "Xx'x",
  "Xx'xx",
  "Xx+",
  "Xx-",
  "Xx.",
  "Xx.X.",
  "XxXx",
  "XxXxX",
  "Xxd",
  "Xxx",
  "Xxx'x",
  "Xxx-",
  "Xxx.",
  "Xxx.-Xxxxx",
  "Xxx.d.dddd.d.ddd.ddd.d",
  "Xxx.d.dddd.ddd.ddd",
  "Xxx.dd.ddd.ddd.ddd",
  "Xxx.dd.dddd",
  "Xxx.ddd.dd.ddX",
  "Xxx.ddd.ddd.dd.d",
  "Xxx.ddd.ddd.dd.dd.dd",
  "Xxx.dddd",
  "XxxXx",
  "Xxxdd",
  "Xxxx",
  "Xxxx'",
  "Xxxx'dd",
  "Xxxx'x",
  "Xxxx-",
  "Xxxx-/Xxxxx",
  "Xxxx.",
  "Xxxx.d",
  "XxxxXxx",
  "XxxxXxxx",
  "XxxxXxxxx",
  "Xxxxx",
  "Xxxxx'",
  "Xxxxx'x",
  "Xxxxx-",
  "Xxxxx.",
  "XxxxxXxx",
  "XxxxxXxxxx",
  "Xxxxxdd",
  "Xxxxx\u2019",
  "Xxxxx\u2019x",
  "Xxxx\u2019",
  "Xxxx\u2019x",
  "Xxx\u2019x",
  "Xx\u2019",
  "Xx\u2019x",
  "Xx\u2019xx",
  "X\u2019x",
  "X\u2019xxxx",
  "Y",
  "Y2",
  "YYy",
  "Ya",
  "Ye",
  "You",
  "Z",
  "ZA",
  "ZI",
  "ZSIRX001",
  "ZUG",
  "Z\\",
  "Zahnkelle",
  "Zarge",
  "Zargen",
  "Ziffer",
  "Zincor",
  "Zn",
  "Zr",
  "Zt",
  "Zu-",
  "Zubeh\u00f6r",
  "Zug",
  "Zulauf",
  "Zweikomponentenschaum",
  "Zweimengenbet\u00e4tigung",
  "Zweist\u00fcckanlage",
  "Zwischengeschoss",
  "[",
  "[-:",
  "[:",
  "[=",
  "\\",
  "\\\")",
  "\\$",
  "\\/",
  "\\MA",
  "\\V",
  "\\WP",
  "\\X",
  "\\XX",
  "\\YA",
  "\\\\",
  "\\f",
  "\\ma",
  "\\n",
  "\\t",
  "\\v",
  "\\x",
  "\\ya",
  "]",
  "]=",
  "^",
  "^_^",
  "^__^",
  "^___^",
  "_*)",
  "_-)",
  "_.)",
  "_<)",
  "_^)",
  "__-",
  "__^",
  "_sT",
  "_\u00ac)",
  "_\u0ca0)",
  "_\u2014.",
  "a",
  "a&__ald",
  "a++",
  "a+++",
  "a.",
  "a.m",
  "a.m.",
  "a01",
  "a10",
  "a175",
  "a1=",
  "a2",
  "a20",
  "a3",
  "a3,4",
  "a30",
  "a417",
  "a70",
  "a770",
  "a7o.cm",
  "a@e",
  "a\\",
  "aa",
  "aal",
  "ab",
  "ab14",
  "abbildung",
  "abdeckplatte",
  "abdeckung",
  "abe",
  "abfallbeh\u00e4lter",
  "abfalleimer",
  "abgang",
  "abgangsrohr",
  "abkl\u00e4rung",
  "ablage",
  "ablagebox",
  "ablauf",
  "ablaufbogen",
  "ablaufdeckel",
  "ablaufgarnitur",
  "ablaufhaube",
  "ablaufmanschette",
  "ablaufschlauch",
  "ablaufventil",
  "ableitung",
  "abnehmbar",
  "abnehmbarem",
  "abo",
  "about",
  "absaugesifon",
  "absenkautomatik",
  "absperrung",
  "absperrventile",
  "abstellfl\u00e4che",
  "abstellverschrau-",
  "abstellverschraub-",
  "abstellverschraubung",
  "abstellverschraubungen",
  "abst\u00fctz",
  "accessoire",
  "ace",
  "ach",
  "ack",
  "act",
  "ad",
  "adapter",
  "adapterplatten",
  "add",
  "ade",
  "adm",
  "adm.",
  "adora",
  "ae",
  "aeert",
  "afo",
  "agb",
  "age",
  "ah",
  "ahl",
  "ai",
  "air",
  "airblade",
  "ak",
  "ak.",
  "aktionen",
  "al",
  "alD",
  "ala",
  "ala.",
  "ale",
  "ali",
  "all",
  "alle",
  "als",
  "alt",
  "alterna",
  "aluminium",
  "aluminiumprofil",
  "am",
  "amount",
  "an",
  "an.",
  "ana",
  "and",
  "and/or",
  "anfahrtspauschale",
  "ang",
  "angebot",
  "ank",
  "anklemmen",
  "anlagen",
  "anmw",
  "ann",
  "annulliert",
  "ann\u00e4herungssensor",
  "ano",
  "ans",
  "anschluss",
  "anschluss-",
  "anschlussbogen",
  "anschlussrohr",
  "anschlussstutzen",
  "anschlusstutzen",
  "anschlusswinkel",
  "anschl\u00fcsse",
  "anstalten",
  "anthrazitgrau",
  "antibakteriell",
  "antimikrobieller",
  "anz",
  "ap",
  "ap128",
  "apr",
  "apr.",
  "apu-151.3",
  "aquaclean",
  "aquajet",
  "ar",
  "ar+",
  "ar.",
  "are",
  "argen",
  "ariz",
  "ariz.",
  "ark",
  "ark.",
  "armaturen",
  "armaturen-",
  "armaturenloch",
  "armaturenl\u00f6cher",
  "armaturenplatte",
  "armhebel",
  "aro",
  "arretierbar",
  "arretierung",
  "arretierungs-",
  "art",
  "art.10.14388",
  "art.10.25877",
  "art.10.27026",
  "art.115.943.21.1",
  "art.162.055.01.02.30",
  "art.2000056898",
  "art.2000056933",
  "art.2000056937",
  "art.2000057150",
  "art.2000100020",
  "art.2000102678",
  "art.2000103670",
  "art.200100088",
  "art.21.062.530.000",
  "art.2329650000",
  "art.433133030001",
  "art.687740470999",
  "art.7.81025.441.000",
  "art.8.1895.8.000.142.1",
  "art.801.35.21s",
  "article_number",
  "artikel",
  "arwa",
  "arx",
  "arz",
  "as-",
  "ash",
  "ass",
  "asy",
  "at",
  "att",
  "attikawohnung",
  "atz",
  "au",
  "au-",
  "auf",
  "aufenthaltsraum",
  "aufputzmontage",
  "aufstecken",
  "aug",
  "aug.",
  "aum",
  "aus",
  "ausf\u00fchrung",
  "ausgabe",
  "ausguss",
  "ausgussbecken",
  "ausladung",
  "auslauf",
  "auslaufventil",
  "auswechselbare",
  "ausziehbar",
  "auszugbrause",
  "av",
  "ava\u0131",
  "ave",
  "avy",
  "ay.",
  "b",
  "b.",
  "b26607d",
  "ba91ws020",
  "bade-",
  "badetuchstange",
  "badewannentr\u00e4ger",
  "bag",
  "ban",
  "band",
  "bar",
  "barrierefrei",
  "basic",
  "bau",
  "bauen",
  "bauseits",
  "bb",
  "be",
  "beachten",
  "because",
  "becken",
  "bed\u00fcrfen",
  "bee",
  "bef.-material",
  "befestigung",
  "befestigungen",
  "befestigungs-",
  "befestigungsflansch",
  "befestigungsflanschen",
  "befestigungsmaterial",
  "befestigungsrahmen",
  "befestigungsset",
  "bef\u00fcllung",
  "begrenzt",
  "bei",
  "beilage",
  "bekon",
  "bel",
  "belastung",
  "beleuchtung",
  "beleutung",
  "ben",
  "ben\u00f6tigt",
  "ber",
  "ber-",
  "beschichtet",
  "bestehend",
  "bestellt",
  "bestimmt",
  "beton",
  "betonboden",
  "betreuung",
  "betreuungsraum",
  "bet\u00e4tigung",
  "bet\u00e4tigungsgarnitur",
  "bf",
  "bi",
  "bidet",
  "bidet-",
  "big",
  "bin",
  "bis",
  "bitte",
  "bitumenmatten",
  "bj",
  "black",
  "bm",
  "bo",
  "bobrick",
  "bodenschatz",
  "bohrungen",
  "bolero",
  "bot",
  "bout",
  "box",
  "bp",
  "br",
  "br.",
  "brause",
  "brausenschlauch",
  "brauseschlauch",
  "breite",
  "bright",
  "bros",
  "bros.",
  "bs302",
  "bs303",
  "bs340",
  "bte",
  "bu",
  "bungen",
  "bx150l",
  "bx180l",
  "bx240l",
  "bx60l",
  "bxc",
  "bxc240",
  "bxhxt",
  "bxsv14",
  "bxsv18",
  "bxsv24",
  "bz",
  "b\u00fcrste",
  "b\u00fcrstenhaltern",
  "c",
  "c'm",
  "c++",
  "c.",
  "ca",
  "cafeteria",
  "calif",
  "calif.",
  "can",
  "caprino",
  "catalano",
  "cause",
  "cd",
  "ce>",
  "ch",
  "ch-",
  "ch.",
  "cha",
  "che",
  "chf",
  "chic'07",
  "chic'14",
  "chrom",
  "chromeline",
  "chromnickelstahl",
  "chrx690",
  "cht",
  "ci",
  "city",
  "cityplus",
  "citypro",
  "cke",
  "ckt",
  "class",
  "classic",
  "clickclack",
  "clinic",
  "close",
  "cm",
  "cntx",
  "cntx400ne",
  "co",
  "co.",
  "co/",
  "colo",
  "colo.",
  "come",
  "comfort",
  "compact",
  "conn",
  "conn.",
  "conoflat",
  "contina",
  "cor",
  "corp",
  "corp.",
  "cos",
  "could",
  "coz",
  "creativa",
  "creme",
  "ct.",
  "cu",
  "cuz",
  "cws",
  "c\u2019m",
  "d",
  "d'ddd'ddd.dd",
  "d'ddd.dd",
  "d)",
  "d,d",
  "d-",
  "d-)",
  "d-X",
  "d.",
  "d.2",
  "d.X.Xxxxx",
  "d.Xxxxx",
  "d.c.",
  "d.d",
  "d.dd",
  "d.dd.d",
  "d.dddd.d.ddd.ddd.d",
  "d.dxd",
  "d.x",
  "d/d",
  "d/d\"/d",
  "d/dd",
  "d01",
  "d>-",
  "dX",
  "dXd",
  "dXx",
  "dXxxxx",
  "d_d",
  "d_x",
  "da",
  "dachgeschoss",
  "damen",
  "dan",
  "dare",
  "db",
  "dd",
  "dd'ddd.dd",
  "dd,d",
  "dd,dx",
  "dd.d",
  "dd.dd",
  "dd.dd.dddd",
  "dd.xx",
  "dd/d",
  "dd/dd",
  "dd:dd:dd",
  "ddX",
  "ddXX",
  "ddd",
  "ddd'ddd.dd",
  "ddd,d",
  "ddd.dd",
  "ddd.ddd.ddd",
  "ddd/d",
  "ddd/ddd",
  "ddd/ddd/ddd/ddd/ddd/ddd",
  "dddX",
  "dddd",
  "dddd.dd",
  "dddx",
  "dddxdd",
  "dddxddxd.d",
  "ddx",
  "ddx.x",
  "ddx.x.",
  "ddxdd",
  "ddxdddxddd",
  "ddxddx",
  "ddxddxd",
  "ddxddxd,d",
  "ddxddxdd",
  "de",
  "de-",
  "dec",
  "dec.",
  "deckel",
  "deckenst\u00fctze",
  "deckkappe",
  "deckkappen",
  "del",
  "del.",
  "dem",
  "den",
  "deo",
  "der",
  "des",
  "design",
  "designgrip",
  "desinfektion",
  "desinfektionsmittelspender",
  "dezentral",
  "dg",
  "di",
  "dichtband",
  "dichtschl\u00e4mme",
  "dichtset",
  "dicke",
  "did",
  "die",
  "diebstahlsicher",
  "diese",
  "dig",
  "digitalanzeige",
  "din",
  "direkt",
  "distanzbolzen",
  "dm",
  "dm.",
  "dn",
  "do",
  "do01",
  "does",
  "doin",
  "doin'",
  "doing",
  "doin\u2019",
  "dolano",
  "domo",
  "domo.5",
  "doppel",
  "doppelspiegelt\u00fcre",
  "doppelspiegelt\u00fcren",
  "doppelsteckdose",
  "doppelsteckdosen",
  "doppelventil",
  "doppelwaschtisch",
  "dor",
  "dr",
  "dr.",
  "drahtseifenhalter",
  "drehbar",
  "drehwirbel",
  "dro",
  "drucklos",
  "ds",
  "du",
  "duo",
  "duofix",
  "dura",
  "durastyle",
  "durch",
  "durchf\u00fchrung",
  "durchgehend",
  "dusch",
  "duschablage",
  "duschablauf",
  "dusche",
  "duschelement",
  "duschengleitstange",
  "duschenmischer",
  "duschenraum",
  "duschensteuerung",
  "duschenvorhang",
  "duschenvorhangschiene",
  "duschenvorhangstange",
  "duschenwanne",
  "duschenwannen",
  "duschenwannenelement",
  "duschenwannengarnitur",
  "duschenwannentr\u00e4ger",
  "duschgleitstange",
  "duschhocker",
  "duschplan",
  "duschplan/",
  "duschtrennwand",
  "duschvorhang",
  "duschwannen",
  "duschway",
  "duty",
  "dv",
  "dvs",
  "dx",
  "dx.x",
  "dx.x.",
  "dxx",
  "dxxxx",
  "dyson",
  "dz",
  "d\u00fcbel",
  "d\u00fcbelschraube",
  "d\u00fcbelschrauben",
  "e",
  "e's",
  "e-",
  "e.",
  "e.g",
  "e.g.",
  "e00",
  "e=",
  "ea",
  "eam",
  "ean",
  "easy",
  "easyfit",
  "eb-",
  "eb.",
  "ebr",
  "ec.",
  "echtglas",
  "eckausgleichsprofile",
  "eckdichtungen",
  "eckhaltegriff",
  "eckmodell",
  "eckventil",
  "eco",
  "eco/",
  "ecoform",
  "ecoplan",
  "ed",
  "edelstahl",
  "edelstahlrost",
  "edelstahlschrauben",
  "edi",
  "ee",
  "eed",
  "eee",
  "eehm",
  "eel",
  "een",
  "eern",
  "efe",
  "eg",
  "ega",
  "eh",
  "ei",
  "eier",
  "eil",
  "eimer",
  "ein",
  "ein-",
  "einbau",
  "einbaukosten",
  "einbausifon",
  "einbausp\u00fclkasten",
  "eine",
  "einer",
  "eingang",
  "eingeformt",
  "einh\u00e4nges\u00e4cke",
  "einlaufgarnitur",
  "einlocharmatur",
  "einlochmischer",
  "einstellbar",
  "einstellung",
  "einteilig",
  "einzeln",
  "eis",
  "eisengitter",
  "eit",
  "ei\u00df",
  "ek",
  "ekt",
  "el",
  "el.",
  "elegance",
  "elektronik",
  "element",
  "elemente",
  "elf",
  "eli",
  "ell",
  "eln",
  "els",
  "elt",
  "elualine",
  "em",
  "ema",
  "eme",
  "en",
  "en-",
  "en.",
  "end",
  "endmontageset",
  "endst\u00fccke",
  "ene",
  "energieeffizienz",
  "energieeffizienzklasse",
  "enn",
  "enough",
  "ens",
  "ent",
  "entfernbares",
  "enz",
  "eo",
  "ep",
  "ep.",
  "ept",
  "er",
  "er-",
  "er\\",
  "erdgeschoss",
  "ere",
  "erfasst",
  "erhalt",
  "ern",
  "ero",
  "ersetzt",
  "ert",
  "es",
  "esazua",
  "ese",
  "esr",
  "ess",
  "esssaal",
  "est",
  "estrx687",
  "et",
  "et-",
  "ete",
  "ets",
  "ett",
  "etz",
  "eu",
  "eug",
  "euraspiegel",
  "ev",
  "ev.",
  "evg",
  "ewi",
  "exkl",
  "exos",
  "experience",
  "export",
  "exzenterscheiben",
  "exzenterventil",
  "ey",
  "ez",
  "e\u2019s",
  "f",
  "f.",
  "fallsicherung",
  "falthandt\u00fccher",
  "far",
  "farbe",
  "fe",
  "feb",
  "feb.",
  "fen",
  "fer",
  "ferien",
  "fernausl\u00f6sung",
  "fest",
  "festelement",
  "feuchtigkeitsschutz",
  "ff",
  "ffe",
  "fh",
  "fi",
  "fil",
  "filter",
  "finden",
  "finish",
  "fiten",
  "fix",
  "fl",
  "fla",
  "fla.",
  "flach",
  "flacher",
  "flansch",
  "flansche",
  "flexzarge",
  "fl\u00fcssigseife",
  "fo",
  "foam",
  "folgende",
  "fon",
  "forte",
  "fr",
  "franke",
  "fre",
  "frei",
  "freibleibend",
  "freistehend",
  "front",
  "frostsichere",
  "ft",
  "fts",
  "fu",
  "fundo",
  "funktion",
  "fussbet\u00e4tigung",
  "fussst\u00fctze",
  "f\u00f6rmig",
  "f\u00fcllmenge",
  "f\u00fcr",
  "f\u00fcrGlas-",
  "f\u00fcralle",
  "f\u00fcrglas-",
  "f\u00fcsse",
  "g",
  "g.",
  "g1",
  "ga",
  "ga.",
  "gabag",
  "ganzmetall",
  "garderobe",
  "garnituren",
  "gartenventil",
  "gastro",
  "gau",
  "gc",
  "ge",
  "ge-",
  "geberit",
  "geberit-",
  "gebogen",
  "geb\u00fchr",
  "geb\u00fcrstet",
  "geeignet",
  "gefliest",
  "geh\u00e4use",
  "gekennzeichnet",
  "gekontert",
  "gel",
  "gelenkhalter",
  "gem",
  "gemeinschafts",
  "gem\u00e4ss",
  "gen",
  "gen.",
  "ger",
  "ger\u00e4uschgruppe",
  "ger\u00e4uschklasse",
  "gesamtbetrag",
  "gesamteinbauh\u00f6he",
  "geschirrwaschbrause",
  "gesichert",
  "getr\u00e4nke",
  "gewerbe",
  "gewinde",
  "gewindebolzen",
  "ge\u00e4ndert",
  "gg",
  "ght",
  "gi",
  "gis",
  "gitter",
  "glanz",
  "glanzverchromt",
  "glanzvernickelt",
  "glas-",
  "glasbau",
  "glasdicke",
  "glashalter",
  "gleiter",
  "gleitgelenkhalter",
  "gleitt\u00fcre",
  "gma",
  "goin",
  "goin'",
  "going",
  "goin\u2019",
  "gon",
  "gonna",
  "got",
  "gov",
  "gov.",
  "gq",
  "gr",
  "grad",
  "grau",
  "griff",
  "gro",
  "grundprogramme",
  "gruppe",
  "gs-",
  "gummi",
  "gummi-",
  "gummiband",
  "gummib\u00e4nder",
  "gummid\u00fcbel",
  "gummih\u00fclsen",
  "gummiunter-",
  "gummiunterlagen",
  "gut",
  "h",
  "h.",
  "h2",
  "ha",
  "haartrockner",
  "haben",
  "had",
  "hafner",
  "haftbleche",
  "haltegriff",
  "haltegriffe",
  "hama",
  "handbrause",
  "handdr\u00fccker",
  "handrad",
  "handtuchhaken",
  "handtuchhalter",
  "handtuchreling",
  "handwaschbecken",
  "hansgrohe",
  "happy",
  "harner",
  "has",
  "haspel",
  "hat",
  "haubenablaufventil",
  "haupteneriezentral",
  "hauswart",
  "have",
  "havin",
  "havin'",
  "having",
  "havin\u2019",
  "hdtx0001",
  "he",
  "he's",
  "he-001",
  "he-002",
  "heavy",
  "hebel",
  "hebels",
  "hen",
  "her",
  "herren",
  "het",
  "hewi",
  "hey",
  "he\u2019s",
  "hi",
  "hin",
  "hindernisfreies",
  "hinten",
  "hinterf\u00fctterung",
  "hinweis",
  "hinweise",
  "hir",
  "his",
  "hitzebest\u00e4ndig",
  "hl",
  "hme",
  "hn",
  "hn2",
  "hn6",
  "hn8",
  "hne",
  "hochglanzpoliert",
  "hochh\u00e4ngend",
  "holder",
  "holz",
  "horizontal",
  "how",
  "how's",
  "how\u2019s",
  "hr",
  "hr-",
  "ht",
  "hts",
  "hygienebeutel",
  "hygienebeutelpackung",
  "hygienebeutelspender",
  "hygienebox",
  "hygieneeinheit",
  "hygienesp\u00fclung",
  "hygolet-",
  "h\u00e4ndetrockner",
  "h\u00f6he",
  "h\u00f6henverstellbar",
  "h\u00f6r",
  "i",
  "i.",
  "i.e",
  "i.e.",
  "i@@",
  "iE",
  "iM",
  "iS",
  "ia",
  "ia.",
  "ial",
  "ice",
  "ich",
  "ick",
  "id",
  "id.",
  "ie",
  "ieb",
  "ief",
  "ier",
  "ies",
  "if",
  "if.",
  "ife",
  "iff",
  "ifi",
  "iga",
  "ige",
  "ign",
  "igt",
  "ih",
  "ihn",
  "ihr",
  "ii",
  "ii/",
  "iii",
  "ij",
  "ik",
  "il",
  "ile",
  "ill",
  "ill.",
  "im",
  "imo",
  "in",
  "in'",
  "in-",
  "ina",
  "inc",
  "inc.",
  "ind",
  "ind.",
  "ine",
  "inee",
  "ineoline",
  "infrarotsensoren",
  "ing",
  "inh",
  "inhalt",
  "ini",
  "injektionsanker",
  "injektionsm\u00f6rtel",
  "inkl",
  "inklusive",
  "inn",
  "innen",
  "innenecken",
  "ino",
  "inoxplus",
  "ins",
  "insassen",
  "installation",
  "installationen",
  "installationshinweis",
  "integrierte",
  "integro",
  "inter",
  "interf\u00fc",
  "invaliden",
  "in\u2019",
  "ion",
  "ior",
  "ip",
  "iqua",
  "ir",
  "ira",
  "ird",
  "ire",
  "irs",
  "is",
  "is.",
  "isa",
  "ise",
  "ish",
  "iso",
  "isolierung",
  "isoset",
  "iss",
  "ist",
  "it",
  "it's",
  "it-",
  "ita",
  "ite",
  "its",
  "itt",
  "ity",
  "itz",
  "it\u2019s",
  "ium",
  "ius",
  "iv",
  "iva",
  "ive",
  "iz",
  "iz.",
  "j",
  "j.",
  "jan",
  "jan.",
  "japanmesser",
  "je",
  "jek",
  "jet",
  "jh",
  "jr",
  "jr.",
  "jul",
  "jul.",
  "jun",
  "jun.",
  "junior",
  "k",
  "k.",
  "k90",
  "ka",
  "kal",
  "kaldewei",
  "kaltwasser",
  "kan",
  "kan.",
  "kann",
  "kans",
  "kans.",
  "kapillarschutz",
  "kapillarschutzband",
  "kar",
  "kare",
  "kartusche",
  "ke",
  "keine",
  "kel",
  "ken",
  "ker",
  "keramik",
  "keramikwaschtische",
  "kettenventil",
  "kettenzug",
  "keuco",
  "kg",
  "kh",
  "ki",
  "kig",
  "kir",
  "kl",
  "kla",
  "klappbar",
  "klappbarem",
  "klappdeckel",
  "klappgriff",
  "klappgrifi",
  "klapprost",
  "klappsitz",
  "klar",
  "klarglas",
  "klartextanzeige",
  "klasse",
  "klassenzimmer",
  "kleberset",
  "kleiderhaken",
  "klein",
  "kleinboiler",
  "kleinklassenzimmer",
  "klemmverschraubung",
  "klingenmesser",
  "klosett",
  "klosettb\u00fcrstenhalter",
  "klosettsitz",
  "knaben",
  "knickfest",
  "koala",
  "kombi",
  "kombiablaufset",
  "kombination",
  "kombiwerkstatt",
  "kon",
  "kondenswasserablaufschlauch",
  "konsolen",
  "kontrollschlitz",
  "koralle",
  "korridor",
  "kr",
  "kt",
  "kte",
  "kugler",
  "kunststeintrog",
  "kunststoff",
  "kunststoffd\u00fcbel",
  "kunststoffgeh\u00e4use",
  "kupferrohr",
  "kwc",
  "kwcfit",
  "kwo",
  "ky",
  "ky.",
  "k\u00f6nnen",
  "k\u00f6rper",
  "k\u00fcche",
  "k\u00fcrzbar",
  "l",
  "l.",
  "l10",
  "la",
  "la.",
  "ladoplan",
  "lagen",
  "lager",
  "lan",
  "lang",
  "lar",
  "las",
  "laufen",
  "laufzeit",
  "lavabo",
  "lavinox",
  "lda",
  "le",
  "leckwasserschutz",
  "led",
  "leerrohr",
  "lehrer",
  "leichtbauw\u00e4nde",
  "leichtbeton",
  "lema",
  "len",
  "ler",
  "let",
  "let's",
  "let\u2019s",
  "lex",
  "liberty",
  "libertyline",
  "lichtgrau",
  "lie",
  "lief",
  "lieferfrist",
  "lif",
  "lifesystem",
  "lig",
  "lim",
  "lin",
  "line",
  "links",
  "lis",
  "liter",
  "ll",
  "ll-",
  "ll.",
  "lla",
  "lle",
  "llt",
  "lm",
  "ln",
  "lnsassen",
  "lo",
  "lo.",
  "lochziegel",
  "loft",
  "lon",
  "lor",
  "los",
  "lose",
  "lovin",
  "lovin'",
  "loving",
  "lovin\u2019",
  "ltd",
  "ltd.",
  "lti",
  "ltj450",
  "ltj500",
  "luftkondensator",
  "lurh",
  "lus",
  "lux",
  "lw",
  "lw2.0087.583",
  "lwa.0033.583",
  "l\u00e4nge",
  "l\u00e4ngere",
  "l\u00e4ngsseite",
  "m",
  "m.",
  "m10",
  "m12",
  "m2",
  "m500hd",
  "m8",
  "ma",
  "ma'am",
  "madam",
  "magnete",
  "magnetventil",
  "mal",
  "mamma",
  "manschettengarnitur",
  "mar",
  "mar.",
  "marmoriert",
  "marx",
  "mas",
  "mass",
  "mass.",
  "massaufnahme",
  "masse",
  "massspiegel",
  "mat",
  "material",
  "materialst\u00e4rke",
  "matt",
  "mattverchromt",
  "mauerdicke",
  "maximal",
  "may",
  "may.",
  "ma\u2019am",
  "mbi",
  "md",
  "md.",
  "me",
  "mechanisch",
  "medikamente",
  "medizinausgabe",
  "mehrzweckbecken",
  "men",
  "mengen",
  "meplafix",
  "mer",
  "messer",
  "messing",
  "messrs",
  "messrs.",
  "metall",
  "metalleffekt",
  "metallspiegel",
  "mh",
  "mi",
  "mi-",
  "mich",
  "mich.",
  "mid",
  "mig",
  "might",
  "mik",
  "mineralfasermatte",
  "minn",
  "minn.",
  "miranit",
  "mischer",
  "miss",
  "miss.",
  "mit",
  "mitt",
  "mitte",
  "mitten",
  "mittig",
  "ml",
  "mm",
  "mma",
  "mme",
  "mmi",
  "mmt",
  "mn",
  "mo",
  "mo.",
  "modern",
  "moderna",
  "mont",
  "mont.",
  "montage",
  "montage-",
  "montagematerial",
  "montagepauschale",
  "montageplatte",
  "montagerahmen",
  "montageschaum",
  "montierbar",
  "mpe",
  "mr",
  "mr.",
  "mrs",
  "mrs.",
  "ms",
  "ms.",
  "mt",
  "mt.",
  "multi",
  "must",
  "mutter",
  "mwst",
  "m\u00e4dchen",
  "m\u00f6belwaschtisch",
  "n",
  "n's",
  "n't",
  "n.",
  "n.c.",
  "n.d.",
  "n.h.",
  "n.j.",
  "n.m.",
  "n.y.",
  "na",
  "nach",
  "nachbehandlungsraum",
  "nal",
  "nasszelle",
  "naturkunde",
  "nc.",
  "nce",
  "nd.",
  "nde",
  "ndo",
  "ne",
  "neb",
  "neb.",
  "nebr",
  "nebr.",
  "nee",
  "need",
  "nen",
  "ner",
  "nero",
  "net",
  "nettobetrag",
  "nettopreis",
  "netz",
  "netzbetrieb",
  "netzger\u00e4t",
  "neu",
  "nev",
  "nev.",
  "new",
  "ney",
  "nf",
  "ng",
  "nge",
  "ni",
  "nic",
  "nicht",
  "niederdruck",
  "nik",
  "nische",
  "nit",
  "nk-",
  "nke",
  "nkl",
  "nks",
  "nm",
  "nn.",
  "nne",
  "nnee",
  "nord",
  "nosag",
  "not",
  "nothin",
  "nothin'",
  "nothing",
  "nothin\u2019",
  "nov",
  "nov.",
  "nox",
  "nr",
  "ns",
  "ns.",
  "nt",
  "nt.",
  "nte",
  "nu",
  "nuff",
  "nussbaum",
  "nuthin",
  "nuthin'",
  "nuthin\u2019",
  "nylon",
  "nylonb\u00fcrste",
  "nz-",
  "nzt",
  "n\u00f6tigem",
  "n\u0131as",
  "n\u2019s",
  "n\u2019t",
  "o",
  "o\"-",
  "o'clock",
  "o's",
  "o-",
  "o.",
  "o.0",
  "o.5",
  "o.O",
  "o.o",
  "o_0",
  "o_O",
  "o_o",
  "oam",
  "obe",
  "oben",
  "oberfll\u00e4che",
  "oberfl\u00e4che",
  "obergeschoss",
  "objek",
  "objekt",
  "och",
  "ock",
  "oct",
  "oct.",
  "od",
  "oder",
  "oe",
  "oes",
  "oesen",
  "of.",
  "off",
  "offen",
  "offene",
  "offener",
  "office",
  "oft",
  "og",
  "oh",
  "ohe",
  "ohne",
  "ohr",
  "oin",
  "oir",
  "okla",
  "okla.",
  "ol",
  "ol'",
  "ola",
  "old",
  "olo",
  "olz",
  "ol\u2019",
  "om",
  "omega",
  "omega20",
  "omo",
  "omt",
  "on",
  "one",
  "onn",
  "ont",
  "oo",
  "op",
  "op-",
  "open",
  "or",
  "ora",
  "orb",
  "ord",
  "ore",
  "ore.",
  "orm",
  "orp",
  "ort",
  "os.",
  "ose",
  "oss",
  "ost",
  "ou",
  "ought",
  "out",
  "ov.",
  "ova",
  "oval",
  "ows",
  "o\u2019clock",
  "o\u2019s",
  "p",
  "p.",
  "p.m",
  "p.m.",
  "p2",
  "p30",
  "pa",
  "pa.",
  "panzerschlauch",
  "paper",
  "paperbin",
  "papierhalter",
  "papierhandtuchspender",
  "papierkorb",
  "papierrollen",
  "papierspender",
  "passend",
  "patientenzimmer",
  "patronen",
  "pausenraum",
  "pe",
  "pel",
  "pen",
  "per",
  "personal",
  "pesonal",
  "pez",
  "pg",
  "ph",
  "ph.d.",
  "pi",
  "piana",
  "piegelbefestigungsse",
  "plan",
  "plastifiziert",
  "plastik",
  "platte",
  "plus",
  "pm",
  "pn",
  "pneumatische",
  "pneumatischer",
  "po",
  "polish",
  "polster",
  "polyamid",
  "polyester",
  "polyethylen",
  "polypropylen",
  "por",
  "poresta",
  "pos",
  "position",
  "positionen",
  "pp",
  "pp-",
  "ppe",
  "ppy",
  "pr",
  "pr.",
  "preis\u00fcbersicht",
  "primo",
  "pro",
  "product",
  "prof",
  "prof.",
  "programme",
  "ps",
  "pt.",
  "push",
  "putzmaterial",
  "putzraum",
  "putztuch",
  "q",
  "q.",
  "qua",
  "quadratisch",
  "quadro",
  "quantity",
  "quertraverse",
  "r",
  "r.",
  "r\\",
  "rad",
  "rag",
  "rahmen",
  "ral",
  "rat",
  "rau",
  "raumausleuchtungen",
  "raumsparmodell",
  "rb",
  "rbe",
  "rch",
  "rd",
  "rde",
  "re",
  "re.",
  "rechteckig",
  "rechts",
  "recycling",
  "regenerieren",
  "regulierventil",
  "rei",
  "reinigungstuch",
  "rem",
  "ren",
  "rep",
  "rep.",
  "reqgulierventil",
  "rer",
  "res",
  "reserveklasse",
  "reserverollenhalter",
  "rev",
  "rev.",
  "rf\u00fc",
  "rg",
  "rge",
  "rh",
  "ri",
  "ria",
  "rie",
  "rimless",
  "ringe",
  "rinne",
  "rip",
  "rit",
  "riz",
  "rk",
  "rk.",
  "rke",
  "rl",
  "rl-",
  "rm",
  "rmt",
  "rn",
  "rna",
  "rne",
  "ro",
  "rodan",
  "rodx",
  "rof",
  "rog",
  "rohbauset",
  "rohrbel\u00fcfter",
  "rohrbogensifon",
  "rohrb\u00e4nder",
  "rohrdurchmesser",
  "rolle",
  "rollen",
  "rollenhalter",
  "rollstuhl",
  "rom",
  "romay",
  "rondo",
  "ros",
  "rosette",
  "rosetten",
  "rp.",
  "rr",
  "rs",
  "rs.",
  "rse",
  "rt",
  "rte",
  "rty",
  "rubiclean",
  "rund",
  "rundungsdifferenz",
  "rv",
  "rwa",
  "r\u00e4t",
  "r\u00fcckenlehne",
  "r\u00fcckenst\u00fctze",
  "r\u00fcckflussverhinderer",
  "r\u00fcckschlagventil",
  "r\u00fcckwand",
  "r\u00fcckwandbefestigungssatz",
  "r\u00fcsten",
  "s",
  "s\"T",
  "s's",
  "s.",
  "s.c.",
  "s600plus",
  "s606plus",
  "sT",
  "sa",
  "sackhalterung",
  "sag",
  "sal",
  "sam",
  "sanaform",
  "sanimatic",
  "saturn",
  "satz",
  "sb",
  "scare",
  "sch",
  "schaftventil",
  "schall-",
  "schalld\u00e4mmband",
  "schallentkoppelungsstreifen",
  "schallisolierte",
  "schallisolierung",
  "schallschutz",
  "schallschutzband",
  "schallschutzmatte",
  "schallschutzset",
  "scharniere",
  "scheiben",
  "schlauch",
  "schlauch-",
  "schlauchanschluss",
  "schlauchanschl\u00fcsse",
  "schlauchansschl\u00fcsse",
  "schlauchhaspel",
  "schlaucht\u00fclle",
  "schlauchver-",
  "schlauchverschraubung",
  "schloss",
  "schmale",
  "schmidlin",
  "schneider",
  "schnittschutz",
  "schraubbefestigung",
  "schrauben",
  "schraubenl\u00f6cher",
  "schraubenset",
  "schraubf\u00fcsse",
  "schraubung",
  "schulwandbrunnen",
  "schutzband",
  "schwallprofil",
  "schwarz",
  "schweissbar",
  "schwenk-",
  "schwenkauslauf",
  "scolaro",
  "scuola",
  "se",
  "sec",
  "see",
  "sehallschutz",
  "seidenmatt",
  "seidenmatter",
  "seifen",
  "seifen-",
  "seifenkonzentrat",
  "seifenpatronen",
  "seifenschale",
  "seifenspender",
  "seite",
  "seitlich",
  "sek",
  "sekunden",
  "sel",
  "selbstentleerung",
  "self",
  "sen",
  "sen.",
  "senkrecht",
  "sensor",
  "sep",
  "sep.",
  "separates",
  "sept",
  "sept.",
  "ser",
  "sert",
  "set",
  "sf",
  "sg",
  "sh.",
  "sha",
  "shall",
  "she",
  "she's",
  "she\u2019s",
  "should",
  "sic",
  "sicherheitspatrone",
  "sichtbare",
  "sichtschlitz",
  "siduo",
  "sie",
  "sieb",
  "sieb-",
  "siebplatte",
  "siebvent",
  "siebventil",
  "siemens",
  "sifon",
  "siga",
  "sigma",
  "sigma01",
  "sigma10",
  "sigma30",
  "silber",
  "silberfarbig",
  "silent",
  "silor",
  "silver",
  "simifix",
  "simiflex",
  "similor",
  "sind",
  "siss",
  "sitz",
  "sitzfl\u00e4che",
  "sitzh\u00f6he",
  "slim",
  "sm",
  "smart",
  "sn",
  "so",
  "soft",
  "somethin",
  "somethin'",
  "something",
  "somethin\u2019",
  "son",
  "sor",
  "sowie",
  "space",
  "spetterinen",
  "spez",
  "spezialschrauben",
  "speziellen",
  "spiegel",
  "spiegelbefesti",
  "spiegelbefestigung",
  "spiegelbefestigungsset",
  "spiegelklammern",
  "spiegelschrank",
  "spiegelschr\u00e4nke",
  "spindel",
  "spirella",
  "sp\u00fcl-/stopbet\u00e4tigung",
  "sp\u00fclausl\u00f6sung",
  "sp\u00fclkasten",
  "sp\u00fclkastenmontage",
  "sp\u00fclk\u00e4sten",
  "sp\u00fclrohr",
  "sp\u00fcltisch",
  "sp\u00fcltische",
  "sp\u00fcltischmischer",
  "sp\u00fcltischsifongarnitur",
  "sp\u00fclung",
  "sr",
  "srs",
  "ss",
  "ss-",
  "ss.",
  "ss5",
  "sse",
  "sst",
  "st",
  "st.",
  "sta",
  "stahl",
  "stahlwannen",
  "stainless",
  "standbidets",
  "standmodell",
  "standrohr-",
  "standrohrventil",
  "standventil",
  "stangensystem",
  "star",
  "startvorwahl",
  "stauffer",
  "ste",
  "steckbogen",
  "steckdichtung",
  "steckdose",
  "steckhalter",
  "steckschl\u00fcssel",
  "steel",
  "steinzeug",
  "stellung",
  "steuer-",
  "steuerung",
  "sti",
  "stk",
  "stop-",
  "stopfenbet\u00e4tigung",
  "styropor",
  "st\u00fcck",
  "st\u00fctzklappgriff",
  "su",
  "su40",
  "superflex",
  "superplan",
  "superplan/",
  "supreme",
  "surprise",
  "sv",
  "swap",
  "sx",
  "sydney",
  "system",
  "sz",
  "s\u00e4ule",
  "s\u00e4urefest",
  "s\u2019s",
  "t",
  "t's",
  "t+",
  "t.",
  "ta",
  "tablar",
  "tal",
  "talis",
  "tamaro",
  "tar",
  "target_price",
  "taro",
  "tat",
  "tc",
  "td.",
  "te",
  "team",
  "technikraum",
  "technischen",
  "teek\u00fcche",
  "teek\u00fcchen",
  "teil",
  "teilig",
  "tel",
  "tem",
  "temperatur",
  "temperatur-",
  "temperaturbegrenz-",
  "temperaturw\u00e4hler",
  "ten",
  "tenn",
  "tenn.",
  "ter",
  "tes",
  "tet",
  "th",
  "that",
  "that's",
  "that\u2019s",
  "them",
  "there",
  "there's",
  "there\u2019s",
  "thermischen",
  "thermostat",
  "these",
  "these's",
  "these\u2019s",
  "they",
  "this",
  "this's",
  "this\u2019s",
  "those",
  "those's",
  "those\u2019s",
  "ti",
  "tic",
  "tiefe",
  "tig",
  "tik",
  "til",
  "tipptasten",
  "tl",
  "to",
  "toiletten",
  "ton",
  "tor",
  "total",
  "tr",
  "trafo",
  "transportkostenanteil",
  "trennw\u00e4nde",
  "tro",
  "trocken-",
  "trockenautomat",
  "trocknungszeit",
  "tr\u00f6ge",
  "ts",
  "tsl",
  "tsl\\wp",
  "tt",
  "tte",
  "tur",
  "turm",
  "twin",
  "typ",
  "typ30",
  "tze",
  "tzt",
  "t\u00fcre",
  "t\u2019s",
  "u",
  "u.",
  "u01",
  "uUZ1",
  "ub-",
  "ube",
  "uch",
  "uck",
  "uco",
  "uct",
  "ueberlauf",
  "uen",
  "uff",
  "ug",
  "ug.",
  "ug01",
  "uhl",
  "ui",
  "ul",
  "ul.",
  "uld",
  "ule",
  "um",
  "umgebung",
  "umstellbar",
  "un",
  "un.",
  "und",
  "ung",
  "ungen",
  "ungeschliffen",
  "uniflex",
  "unimatic",
  "universal",
  "unt",
  "unten",
  "unter",
  "unterlagen",
  "unterputzsifon",
  "unterteil",
  "up",
  "ur",
  "ur-",
  "ura",
  "urinoir",
  "urinoiranlage",
  "urinoirelement",
  "urinoirs",
  "urinoirsteuerung",
  "urm",
  "urn",
  "us",
  "use",
  "ush",
  "uss",
  "ust",
  "ut",
  "uty",
  "utz",
  "uuz1",
  "v",
  "v.",
  "v.s",
  "v.s.",
  "v.v",
  "v2",
  "v3n",
  "vRG",
  "v_v",
  "va",
  "va.",
  "val",
  "variante",
  "varius",
  "va\u0131",
  "ve",
  "ventil",
  "ventilunterteil",
  "ver",
  "verbindungsbausatz",
  "verchromt",
  "verdeckt",
  "verdeckte",
  "verdeckter",
  "vergr\u00f6sserungsspiegel",
  "verkaufseinheit",
  "vero",
  "verschiebbar",
  "verschraubte",
  "verschraubung",
  "verschraubungen",
  "verstellbar",
  "vertikal",
  "vertikaler",
  "vi",
  "vie",
  "vier",
  "vierteilig",
  "vin",
  "vita",
  "vital",
  "vlieskaschiertes",
  "vn",
  "vollelektronik",
  "von",
  "vorgezogene",
  "vorhanggleiter",
  "vorhangstange",
  "vormontiert",
  "vorne",
  "vorraum",
  "vorwandelement",
  "vorwandmontage",
  "vorwandsystem",
  "vr",
  "vrg",
  "vs",
  "vs.",
  "vum",
  "w",
  "w's",
  "w-",
  "w.",
  "w/",
  "w/o",
  "w1",
  "w2=",
  "wSt",
  "w\\",
  "waagrecht",
  "wallbox",
  "wand",
  "wandabstand",
  "wandarmatur",
  "wandausguss",
  "wandbatterie",
  "wandbecken",
  "wandbidet",
  "wandbrause",
  "wandklosett",
  "wandklosettelement",
  "wandmischer",
  "wandmontage",
  "wandrosetten",
  "wannen",
  "wannendichtban",
  "wannendichtband",
  "wannenoberfl\u00e4chen-",
  "wannenprofil",
  "wannenrandprofil",
  "wap",
  "was",
  "wasch",
  "waschautomat",
  "waschautomaten",
  "waschk\u00fcche",
  "waschplatz",
  "waschraum",
  "waschrinne",
  "waschtisch",
  "waschtisch-",
  "waschtischbefestigungen",
  "waschtische",
  "waschtischelement",
  "waschtischen",
  "waschtischkonsolen",
  "waschtischsteuerung",
  "waschtischst\u00e4nder",
  "waschtrog",
  "wash",
  "wash.",
  "wasser",
  "wasserablauf",
  "wasseranschluss",
  "wasserzu-",
  "waxly",
  "way",
  "wb",
  "wc",
  "wciv",
  "we",
  "wechselbar",
  "wechselplatte",
  "wedi",
  "wei",
  "weiss",
  "wei\u00df",
  "wer",
  "wer\\",
  "werden",
  "were",
  "werken",
  "werkstatt",
  "wesentlich",
  "what",
  "what's",
  "what\u2019s",
  "when",
  "when's",
  "when\u2019s",
  "where",
  "where's",
  "where\u2019s",
  "whirl-",
  "who",
  "who's",
  "who\u2019s",
  "why",
  "why's",
  "why\u2019s",
  "wi",
  "wichtige",
  "wickeltisch",
  "wie",
  "will",
  "win",
  "winkel",
  "winkelgriff",
  "wipp-",
  "wird",
  "wis",
  "wis.",
  "without",
  "wj",
  "wm",
  "wo",
  "would",
  "wp",
  "wr",
  "ws",
  "wurde",
  "wurden",
  "ww",
  "www.kuechenexpress.ch",
  "www.sanitastroesch.ch",
  "w\u00e4geli",
  "w\u00e4rmepumpe",
  "w\u00e4rmepumpentrockner",
  "w\u00e4schetrockner",
  "w\u2019s",
  "x",
  "x\"-",
  "x'",
  "x'x",
  "x'xxxx",
  "x+",
  "x-",
  "x.",
  "x.X",
  "x.d",
  "x.x",
  "x.x.",
  "x/x",
  "x15",
  "x25",
  "x33",
  "x36",
  "x39",
  "x40",
  "x45",
  "x51",
  "x57",
  "x60",
  "x90",
  "xD",
  "xDD",
  "xLy",
  "xX",
  "xXX",
  "xXXd",
  "x\\",
  "x_X",
  "x_d",
  "x_x",
  "xd",
  "xdd",
  "xkl",
  "xx",
  "xx'",
  "xx'x",
  "xx'xx",
  "xx-",
  "xx.",
  "xxXx",
  "xxd",
  "xxl",
  "xxl/",
  "xxx",
  "xxx'x",
  "xxx.xxxx.xx",
  "xxx/",
  "xxx/xx",
  "xxxXxxx-",
  "xxx\\",
  "xxxx",
  "xxxx'",
  "xxxx'x",
  "xxxx_xxxx",
  "xxxx\u2019",
  "xxxx\u2019x",
  "xxx\u2019x",
  "xx\u2019",
  "xx\u2019x",
  "xx\u2019xx",
  "x\u2019",
  "x\u2019x",
  "x\u2019xxxx",
  "x\ufe35x",
  "y",
  "y'",
  "y's",
  "y.",
  "y2",
  "ya",
  "ye",
  "yj",
  "yle",
  "you",
  "yyy",
  "y\u2019",
  "y\u2019s",
  "z",
  "z.",
  "zEa",
  "zZ",
  "z\\",
  "za",
  "zahnkelle",
  "zarge",
  "zargen",
  "ze",
  "zen",
  "zi",
  "ziffer",
  "zincor",
  "zn",
  "zr",
  "zsirx001",
  "zt",
  "zu",
  "zu-",
  "zua",
  "zubeh\u00f6r",
  "zug",
  "zugeh\u00f6rige",
  "zulauf",
  "zum",
  "zur",
  "zusammenlegbar",
  "zwei",
  "zweikomponentenschaum",
  "zweimengenbet\u00e4tigung",
  "zweist\u00fcckanlage",
  "zwischengeschoss",
  "zylindrisch",
  "zz",
  "zzEa",
  "zza",
  "zzea",
  "{",
  "|",
  "||",
  "}",
  "\u00a0",
  "\u00a3",
  "\u00a9",
  "\u00ab",
  "\u00ac",
  "\u00ac_\u00ac",
  "\u00ae",
  "\u00af",
  "\u00af\\(x)/\u00af",
  "\u00af\\(\u30c4)/\u00af",
  "\u00b0",
  "\u00bb",
  "\u00d6",
  "\u00d6ffnung",
  "\u00dc",
  "\u00dcberlauf",
  "\u00dcbertischmontage",
  "\u00e4",
  "\u00e4.",
  "\u00e4a5",
  "\u00e4ss",
  "\u00f6",
  "\u00f6.",
  "\u00f6ffentliche",
  "\u00f6ffnung",
  "\u00f6ge",
  "\u00f6he",
  "\u00fc",
  "\u00fc.",
  "\u00fcberlauf",
  "\u00fcbertischmontage",
  "\u00fcck",
  "\u00fchr",
  "\u00fcre",
  "\u00fctz",
  "\u0131",
  "\u0131as",
  "\u0131b",
  "\u0131\u0131",
  "\u0ca0",
  "\u0ca0_\u0ca0",
  "\u0ca0\ufe35\u0ca0",
  "\u2014",
  "\u2018",
  "\u2018S",
  "\u2018X",
  "\u2018s",
  "\u2018x",
  "\u2019",
  "\u2019-(",
  "\u2019-)",
  "\u2019-B",
  "\u2019Cause",
  "\u2019Cos",
  "\u2019Coz",
  "\u2019Cuz",
  "\u2019S",
  "\u2019X",
  "\u2019Xxx",
  "\u2019Xxxxx",
  "\u2019am",
  "\u2019bout",
  "\u2019cause",
  "\u2019cos",
  "\u2019coz",
  "\u2019cuz",
  "\u2019d",
  "\u2019em",
  "\u2019ll",
  "\u2019m",
  "\u2019nuff",
  "\u2019re",
  "\u2019s",
  "\u2019ve",
  "\u2019x",
  "\u2019xx",
  "\u2019xxx",
  "\u2019xxxx",
  "\u2019y",
  "\u2019\u2019",
  "\u201a",
  "\u201c",
  "\u201d",
  "\u201e",
  "\u20ac",
  "\u2501",
  "\u253b",
  "\u253b\u2501\u253b",
  "\u256f",
  "\u25a1",
  "\ufe35",
  "\uff09"
]