            39900    1                               2111 854.100.000                                 354.00             354.00 
                     ST            x                 Wand-Klosett Moderna R - UP                      PG  10 
                                        ar           rimless 
                                                     für Einbauspülkasten 
                                                     weiss 