            30600    4                               1422 117.000.000                                  56.00             224.00 
                     ST                    ——        Duschwannenablauf  Geberit 90 ©                  PG  10 
                                         =           Abgang ®  56 mm 
                                                       g 
                                                     direkt verschweissbar 
                                                     für Duschwannen mit 
                                                     Ablaufloch & 90 mm 
                                                     Ablaufleistung 0,65 I/s 
                                                     ohne Ablaufdeckel 1422 118 