            3220     10               >              6521 109.501.000                                  24.50             245.00 
                     ST                             Abstellverschraubung                              PG  10 
                                                     Similor 
                                 &       a     >     Ye" x %" mit flacher 
                                 ü      II/         Rosette 
                                       4             verchromt 