            10500     10                             6511  201.501.000                                  26.00             260.00 
                      ST                              Regulierventil Similor Y"                         PG 10 
                                      Am   =         45 mm,  ohne Klemmverschraubung 
                                      &,    BF,      Geräuschgruppe  Il 
                                            {m       verchromt 