            31320     1          (keine Abbildung)     1529 990.000.000                                135.00             135.00 
            K         ST                               Massaufnahme   Trennwände                       PG  91 
                                                       Koralle, pro Objekt 
                                                       Nettobetrag 
                                                       Bitte beachten Sie den technischen Installationshinweis Nr. 3 in der Beilage. 