            4400     5                               3381 121.000.000                                  16.50              82.50 
                     ST          r             7     Schallschutz-SET HAFNER                          PG 10 
                                                     Wandklosett / Wandbidet 
                                                     1 Schallschutzmatte 5 mm 
                                               N     2 Gummihülsen, 2 U-Scheiben 
                                                     2 Gummiunterlagen 
                                 Hinweis 
                                 Spülkasten im BA Element 