            2820      4                               1441 781.000.000                                 170.00              680.00 
                      ST                              Schallschutz-Set Alterna                          PG 10 
                                  hi         ii       zu Badewannenträger 
                                                      bis 200 x 100 cm 
                                    R        —-       für Stahlwannen 
                                                      3 Mineralfasermatten 
                                                      3 Bitumenmatten 
                                                      250 x 250 mm 
                                                      Reinigungstuch 
                                                      (zur Montage auf Betonboden) 