           2850     4                   AEEN       6541 344.501.000                                33.50             134.00 
                     ST                 2]         Handbrause Alterna rain shower                  PG 10 
                                         u         1- Jet, © 110 mm 
                                 d 0               Brauseplatte verchromt 
                                                   Durchflussleistung 11 l/min. 
                                                   Geräuschgruppe NT 
                                                   verchromt 