            2180     5                              2111 898.100.000                                 128.00             640.00 
                     ST          2                   Klosettsitz Moderna R slim                       PG 10 
                                            e       mit Deckel, Scharniere Metall 
                                                    mit Absenkautomatik 
                                                    weiss 