            19800    5                              1445 421.000.000                                 106.00             530.00 
                     ST                             Schallschutzset Poresta                           PG 10 
                                                    für Duschenwannenträger 
                                    ®@             bis  120 x 120 cm, inkl. 
                                                    Schallentkoppelungsstreifen 
            31.08.2020 / 17:00:41                                                                  www.sanitastroesch.ch 