            3270     4                              2111 898.100.000                                 128.00             512.00 
                     ST                              Klosettsitz Moderna R slim                       PG 10 
                                            =       mit Deckel, Scharniere Metall 
                                                    mit Absenkautomatik 
                                                    weiss 