            4600     5                               3241 101.000.000                                  28.00             140.00 
                     ST                              Manschettengarnitur Geberit                      PG 10 
                                                     2 Deckkappen mattverchromt 
                                                     für Zu- und Ableitung 
                                           av)       Wandklosett und Ausguss 