            12710     1                    =          1461 003.000.000                                 229.00              229.00 
                                           ED 
                      ST            _     cn)         Zargen-Wannendichtband  Alterna                   PG  10 
                                      I   a,          Länge 3 m, faserverstärkt 
                                   a     _.           integrierte Schallisolierung 
                                   u                  selbstklebend 
                                                      für alle Einbauvarianten 
                                                      Wannenoberflächen-Schutzband 
                                                      2 Wannen-Eckdichtungen 
                                                      1 Anpressschaber 
                                                      1 Cuttermesser 