            36600     1                              8112 211.336.000                                   28.00              28.00 
                      ST                    a]       Spültischsifongarnitur Geberit                    PG  10 
                                                     Schlauchtülle 1", Abgang 
                                   >                 2 56 mm,  1-teilig, 192" 
                                                     grau 