           28600    4                              6542 534.501.000                                37.50             150.00 
                     ST                            Brauseschlauch Similor                          PG 10 
                                                   Simiflex, Kunststoff mit 
                                                   Metalleffekt, 180 cm 
                                                   Drehwirbel, 42" x Ye" 
                                 r                 verchromt 