            34640     1           (keine Abbildung)     1521 098.000.000                                290.00             290.00 
            K         ST                                Montagepauschale  für                           PG  91 
                                                        freistehende Seitenwand S400 
                                                        bis 120 cm 
                                                        120 cm 