           9900      5                              4111 819.501.000                                106.00            530.00 
                     ST                             Duschablage                                     PG 10 
                                         UI         Alterna duschbay - Eckmodell 
                                    Se              18,4 x 18,4 cm, Höhe 7 cm 
                                                    verchromt 