            3100     4                        OR   6211  420.501.000 
                     ST                G     e       Duschenmischer-Set 
                                 @   Be]             Alterna architect 
                                  1  71             verchromt 
                                       I             zugehörige Pos.Nr 31010 bis 31040 