            33800     1                              1445 317.000.000                                  175.00             175.00 
            K         ST                 l           Duschenwannenträger                               PG  10 
                                                     Poresta 2.0 
                                       £             90 x75x6,5cm 
                                           I         Schmidlin, Kaldewei Duschplan 
                                                     Höhe  17 cm 