            19900    5                       OR    6211  420.501.000 
                     ST                G     e       Duschenmischer-Set 
                                 @   Be]            Alterna architect 
                                  u    |            verchromt 
                                      I  |          zugehörige Pos.Nr 19910 bis 19940 