            37200     1                   5          1422 118.100.000                                   23.00              23.00 
                     ST                      a       Ablaufdeckel Geberit                              PG 83 
                                         —           zu Duschwannenablauf  ® 90 mm 
                                                     1422 117 
                                                     weiss 