            13510    1                  sg            2231  813.105.000                              813.00              813.00 
                     sT                  .:5          Waschtisch Catalano Zero Up                     PG 10 
                                  N                   75x  50 cm, mit Überlauf 
                                                      Armaturenloch 
                                                      Abstellfläche links 
                                                       Befestigungsmaterial 
                                                      weiss Cleaneffekt 