            20610    5                   ü             2231 811.105.000                               813.00           4065.00 
                     ST                   >            Waschtisch Catalano Zero Up                    PG  10 
                                  N                    75 x 50 cm, mit Überlauf 
                                                       Armaturenloch 
                                                       Abstellfläche rechts 
                                                       Befestigungsmaterial 
                                                       weiss Cleaneffekt 
            31.08.2020 / 17:00:41                                                                   www.sanitastroesch.ch 