            10800     5                              5299  910.000.000                                  46.00             230.00 
                      ST                     |       Schallschutzset Hafner Iso-Set                     PG 10 
                                          Es         Spiegelschrank, 2 Gummibänder 
                                  Ta     Staa   .    0,7 m, 13 Gummiunterlagen 
                                  Wen   Wwäzr:       6 Schrauben, 6 Gummidübel 
                                                     4 schallisolierte Schrauben 
                                                     für alle Spiegelschränke 