           16510    1                   —         1461 005.000.000                               263.00            263.00 
                                        ED            In ANIOHHOnAI 
                    ST           _     =          Zargen-Wannendichtband Alterna                 PG  10 
                                  ZB              Länge 3,6 m, faserverstärkt 
                                Q                        ’   ’ 
                                   I   u,         integrierte Schallisolierung 
                                     u            selbstklebend 
                                                  für alle Einbauvarianten 
                                                  Wannenoberflächen-Schutzband 
                                                  2 Wannen-Eckdichtungen 
                                                  1 Anpressschaber 
                                                  1 Cuttermesser 