           375390    1                   EN        6541 344.501.000                                 33.50              33.50 
                     ST                 27         Handbrause  Alterna rain shower                  PG 10 
                                          _        1- Jet, 8 110mm 
                                  EL               Brauseplatte verchromt 
                                                   Durchflussleistung 11 l/min. 
                                                   Geräuschgruppe  NT 
                                                   verchromt 