            1360     1                               3171 110.000.000                                  23.50              23.50 
                     ST            2            5    Schallschutz ISO-SET HAFNER                      PG 10 
                                   .       )         Waschtisch, 2 Gummihülsen 
                                 Lo    —I    =       2 U-Scheiben, 2 Gummiunter- 
                                  zzEa       ©       lagen, Gummiband 1,6 m 
                                            —        für Waschtische und Wandbecken 
                                                     bis Breite 80 cm 