            24700     1                              1351 182.100.000                                1'661.00           1'661.00 
            K        ST                              Eckduschenwanne   Schmidlin                       PG 10 
                                    ec               Schenkellänge 90 cm, Tiefe 
                                                     6,5 cm, Schallisolierung 
                                                     Stahl, Montagegestell, Vorder- 
                                                     front angeformt Höhe 7,5 cm 
                                                     Ablaufloch & 90 mm 
                                                     Radius 500 mm 
                                                     weiss 
                                                     Bitte beachten Sie den technischen Installationshinweis Nr. 10 in der Beilage. 