            39220    1              —                  6211 443.501.000                               219.00             219.00 
                     ST                               Einlochmischer                                  PG  10 
                                         on            Alterna architect 
                                                       Auslauf fest, A 140 mm 
                                                       Kaltwasser-Position 
                                                       des Hebels in der Mitte 
                                                       Ablaufventil 
                                                       Schlauchanschlüsse %" 
                                                       Geräuschgruppe | 
                                                       verchromt 