            38700    1                   EN        6541  344.501.000                                  33.50              33.50 
                     ST                  27          Handbrause Alterna rain shower                   PG 10 
                                           u         1- Jet, © 110 mm 
                                  d er               Brauseplatte verchromt 
                                                     Durchflussleistung 11 l/min. 
                                                    Geräuschgruppe  NT 
                                                    verchromt 
            31.08.2020 / 17:00:41                                                                  www.sanitastroesch.ch 