            13150    1                  T           6531 403.501.000                                 121.00             121.00 
                     ST                             Duschengleitstange                               PG  10 
                                        de          Alterna fit 
                                                    Gelenkhalter 
                                                    Arretierungshebel, 61 cm 
                                                    verchromt 