            3230     5                     EN        6541 344.501.000                                  33.50             167.50 
                     ST                  227         Handbrause Alterna rain shower                   PG  10 
                                           _         1- Jet, 8 110mm 
                                   d er              Brauseplatte verchromt 
                                                     Durchflussleistung 11 l/min. 
                                                     Geräuschgruppe  NT 
                                                     verchromt 