            40720    1              a                 6211 443.501.000                               219.00             219.00 
                     ST                 5            Einlochmischer                                  PG  10 
                                        on            Alterna architect 
                                                      Auslauf fest, A 140 mm 
                                                      Kaltwasser-Position 
                                                      des Hebels in der Mitte 
                                                      Ablaufventil 
                                                      Schlauchanschlüsse %" 
                                                      Geräuschgruppe  | 
                                                      verchromt 