            7600      5                               2111 854.100.000                                  354.00            1'770.00 
                      ST                              Wand-Klosett Moderna  R - UP                      PG  10 
                                           ze         rimless 
                                                      für Einbauspülkasten 
                                                      weiss 