            13310    1           (keine Abbildung)    9999 999.999.999                               737.10             737.10 
            K        ST                               Seitenwand freistehend                         PG  40 
                                                      Koralle S400 
                                                      Höhe  200 cm 
                                                      Breite bis 100 cm 
                                                      Anschlag links 
                                                      Lief.Art.S400 TDF 900 
                                                      silberfarbig 
                                                      Echtglas klar 
                                                      Bitte beachten Sie den technischen Installationshinweis Nr. 2 in der Beilage. 