            39600    2                               4111 435.501.000                                  13.00              26.00 
                     ST                              Handtuchhaken  Alterna piana                     PG  10 
                                                     einfach 
                                                     verchromt 