            2900      5                               1441 717.000.000                                 162.00              810.00 
                      ST                              Badewannenträger Alterna                          PG 10 
                                                     zu Alterna ecoform 
                                                     Alterna steel uno 
                                                      Kaldewei Saniform Plus 
                                                      Schmidlin Form 
                                                      Schmidlin Norm Classic 
                                                      170 x 75 cm, Höhe 57 cm 