            27900     4                               1411 121.100.000                                 120.00              480.00 
            K         ST                (             Ab- und Ueberlaufset Geberit                      PG 10 
                                        x             Rosette ohne Träger 
                                           s          Ventilkegel 
                                        T             für Wannengarnituren 1 1/2" 
                                                      mit Zentralverschraubung 
                                         I            zu 1411 104/105/106 
                                                      weiss 