            14200     1                              2111 854.100.000                                 354.00              354.00 
                     ST                              Wand-Klosett Moderna  R - UP                      PG 10 
                                          ze         rimless 
                                                     für Einbauspülkasten 
                                                     weiss 