           28700    4                              4111 819.501.000                               106.00             424.00 
                     ST                            Duschablage                                     PG 10 
                                    IL             Alterna duschbay - Eckmodell 
                                   x               18,4 x 18,4 cm, Höhe 7 cm 
                                                   verchromt 