            32300    4                               3381 121.000.000                                   16.50              66.00 
                     ST                              Schallschutz-SET HAFNER                           PG  10 
                                 T              T     Wandklosett / Wandbidet 
                                                     1 Schallschutzmatte 5 mm 
                                               N     2 Gummihülsen,  2 U-Scheiben 
                                                     2 Gummiunterlagen 
                                 Hinweis 
                                 Spülkasten im BA Element 