            36800     1                              6511 221.508.000                                   19.00              19.00 
                      ST           Fr    -           Regulierventil Similor 42"                        PG  10 
                                      >              70 mm,  ohne Klemmverschraubung 
                                                     ohne Rosette 
                                                     Geräuschgruppe  I 
                                                     messing 
            31.08.2020 / 17:00:41                                                                    www.sanitastroesch.ch 